%YAML 1.1
%TAG !u! tag:unity3d.com,2011:
--- !u!114 &11400000
MonoBehaviour:
  m_ObjectHideFlags: 0
  m_CorrespondingSourceObject: {fileID: 0}
  m_PrefabInstance: {fileID: 0}
  m_PrefabAsset: {fileID: 0}
  m_GameObject: {fileID: 0}
  m_Enabled: 1
  m_EditorHideFlags: 0
  m_Script: {fileID: 11500000, guid: bf2edee5c58d82540a51f03df9d42094, type: 3}
  m_Name: Medium_PipelineAsset
  m_EditorClassIdentifier: 
  k_AssetVersion: 11
  k_AssetPreviousVersion: 11
  m_RendererType: 1
  m_RendererData: {fileID: 0}
  m_RendererDataList:
  - {fileID: 11400000, guid: 46015030f2d144c4fba5d6c100b3477d, type: 2}
  m_DefaultRendererIndex: 0
  m_RequireDepthTexture: 0
  m_RequireOpaqueTexture: 0
  m_OpaqueDownsampling: 1
  m_SupportsTerrainHoles: 1
  m_SupportsHDR: 1
  m_HDRColorBufferPrecision: 0
  m_MSAA: 1
  m_RenderScale: 1
  m_UpscalingFilter: 0
  m_FsrOverrideSharpness: 0
  m_FsrSharpness: 0.92
  m_EnableLODCrossFade: 1
  m_LODCrossFadeDitheringType: 1
  m_ShEvalMode: 0
  m_MainLightRenderingMode: 1
  m_MainLightShadowsSupported: 1
  m_MainLightShadowmapResolution: 1024
  m_AdditionalLightsRenderingMode: 1
  m_AdditionalLightsPerObjectLimit: 1
  m_AdditionalLightShadowsSupported: 1
  m_AdditionalLightsShadowmapResolution: 1024
  m_AdditionalLightsShadowResolutionTierLow: 256
  m_AdditionalLightsShadowResolutionTierMedium: 512
  m_AdditionalLightsShadowResolutionTierHigh: 1024
  m_ReflectionProbeBlending: 1
  m_ReflectionProbeBoxProjection: 1
  m_ShadowDistance: 20
  m_ShadowCascadeCount: 1
  m_Cascade2Split: 0.33333334
  m_Cascade3Split: {x: 0.1, y: 0.3}
  m_Cascade4Split: {x: 0.06666667, y: 0.2, z: 0.46666667}
  m_CascadeBorder: 0.2
  m_ShadowDepthBias: 1
  m_ShadowNormalBias: 1
  m_AnyShadowsSupported: 1
  m_SoftShadowsSupported: 0
  m_ConservativeEnclosingSphere: 0
  m_NumIterationsEnclosingSphere: 64
  m_SoftShadowQuality: 2
  m_AdditionalLightsCookieResolution: 2048
  m_AdditionalLightsCookieFormat: 3
  m_UseSRPBatcher: 1
  m_SupportsDynamicBatching: 0
  m_MixedLightingSupported: 1
  m_SupportsLightCookies: 1
  m_SupportsLightLayers: 0
  m_DebugLevel: 0
  m_StoreActionsOptimization: 0
  m_EnableRenderGraph: 0
  m_UseAdaptivePerformance: 1
  m_ColorGradingMode: 0
  m_ColorGradingLutSize: 32
  m_UseFastSRGBLinearConversion: 0
  m_ShadowType: 1
  m_LocalShadowsSupported: 0
  m_LocalShadowsAtlasResolution: 256
  m_MaxPixelLights: 0
  m_ShadowAtlasResolution: 256
  m_VolumeFrameworkUpdateMode: 0
  m_Textures:
    blueNoise64LTex: {fileID: 0}
    bayerMatrixTex: {fileID: 0}
  m_PrefilteringModeMainLightShadows: 1
  m_PrefilteringModeAdditionalLight: 4
  m_PrefilteringModeAdditionalLightShadows: 1
  m_PrefilterXRKeywords: 0
  m_PrefilteringModeForwardPlus: 1
  m_PrefilteringModeDeferredRendering: 1
  m_PrefilteringModeScreenSpaceOcclusion: 1
  m_PrefilterDebugKeywords: 0
  m_PrefilterWriteRenderingLayers: 0
  m_PrefilterHDROutput: 0
  m_PrefilterSSAODepthNormals: 0
  m_PrefilterSSAOSourceDepthLow: 0
  m_PrefilterSSAOSourceDepthMedium: 0
  m_PrefilterSSAOSourceDepthHigh: 0
  m_PrefilterSSAOInterleaved: 0
  m_PrefilterSSAOBlueNoise: 0
  m_PrefilterSSAOSampleCountLow: 0
  m_PrefilterSSAOSampleCountMedium: 0
  m_PrefilterSSAOSampleCountHigh: 0
  m_PrefilterDBufferMRT1: 0
  m_PrefilterDBufferMRT2: 0
  m_PrefilterDBufferMRT3: 0
  m_PrefilterScreenCoord: 0
  m_PrefilterNativeRenderPass: 0
  m_ShaderVariantLogLevel: 0
  m_ShadowCascades: 0
