%YAML 1.1
%TAG !u! tag:unity3d.com,2011:
--- !u!29 &1
OcclusionCullingSettings:
  m_ObjectHideFlags: 0
  serializedVersion: 2
  m_OcclusionBakeSettings:
    smallestOccluder: 5
    smallestHole: 0.25
    backfaceThreshold: 100
  m_SceneGUID: 00000000000000000000000000000000
  m_OcclusionCullingData: {fileID: 0}
--- !u!104 &2
RenderSettings:
  m_ObjectHideFlags: 0
  serializedVersion: 9
  m_Fog: 0
  m_FogColor: {r: 0.5, g: 0.5, b: 0.5, a: 1}
  m_FogMode: 3
  m_FogDensity: 0.01
  m_LinearFogStart: 0
  m_LinearFogEnd: 300
  m_AmbientSkyColor: {r: 0.212, g: 0.227, b: 0.259, a: 1}
  m_AmbientEquatorColor: {r: 0.114, g: 0.125, b: 0.133, a: 1}
  m_AmbientGroundColor: {r: 0.047, g: 0.043, b: 0.035, a: 1}
  m_AmbientIntensity: 1
  m_AmbientMode: 0
  m_SubtractiveShadowColor: {r: 0.42, g: 0.478, b: 0.627, a: 1}
  m_SkyboxMaterial: {fileID: 10304, guid: 0000000000000000f000000000000000, type: 0}
  m_HaloStrength: 0.5
  m_FlareStrength: 1
  m_FlareFadeSpeed: 3
  m_HaloTexture: {fileID: 0}
  m_SpotCookie: {fileID: 10001, guid: 0000000000000000e000000000000000, type: 0}
  m_DefaultReflectionMode: 0
  m_DefaultReflectionResolution: 128
  m_ReflectionBounces: 1
  m_ReflectionIntensity: 1
  m_CustomReflection: {fileID: 0}
  m_Sun: {fileID: 0}
  m_IndirectSpecularColor: {r: 0, g: 0, b: 0, a: 1}
  m_UseRadianceAmbientProbe: 0
--- !u!157 &3
LightmapSettings:
  m_ObjectHideFlags: 0
  serializedVersion: 12
  m_GIWorkflowMode: 0
  m_GISettings:
    serializedVersion: 2
    m_BounceScale: 1
    m_IndirectOutputScale: 1
    m_AlbedoBoost: 1
    m_EnvironmentLightingMode: 0
    m_EnableBakedLightmaps: 1
    m_EnableRealtimeLightmaps: 1
  m_LightmapEditorSettings:
    serializedVersion: 12
    m_Resolution: 2
    m_BakeResolution: 40
    m_AtlasSize: 1024
    m_AO: 0
    m_AOMaxDistance: 1
    m_CompAOExponent: 1
    m_CompAOExponentDirect: 0
    m_ExtractAmbientOcclusion: 0
    m_Padding: 2
    m_LightmapParameters: {fileID: 0}
    m_LightmapsBakeMode: 1
    m_TextureCompression: 1
    m_FinalGather: 0
    m_FinalGatherFiltering: 1
    m_FinalGatherRayCount: 256
    m_ReflectionCompression: 2
    m_MixedBakeMode: 1
    m_BakeBackend: 0
    m_PVRSampling: 1
    m_PVRDirectSampleCount: 32
    m_PVRSampleCount: 512
    m_PVRBounces: 2
    m_PVREnvironmentSampleCount: 512
    m_PVREnvironmentReferencePointCount: 2048
    m_PVRFilteringMode: 0
    m_PVRDenoiserTypeDirect: 0
    m_PVRDenoiserTypeIndirect: 0
    m_PVRDenoiserTypeAO: 0
    m_PVRFilterTypeDirect: 0
    m_PVRFilterTypeIndirect: 0
    m_PVRFilterTypeAO: 0
    m_PVREnvironmentMIS: 0
    m_PVRCulling: 1
    m_PVRFilteringGaussRadiusDirect: 1
    m_PVRFilteringGaussRadiusIndirect: 5
    m_PVRFilteringGaussRadiusAO: 2
    m_PVRFilteringAtrousPositionSigmaDirect: 0.5
    m_PVRFilteringAtrousPositionSigmaIndirect: 2
    m_PVRFilteringAtrousPositionSigmaAO: 1
    m_ExportTrainingData: 0
    m_TrainingDataDestination: TrainingData
    m_LightProbeSampleCountMultiplier: 4
  m_LightingDataAsset: {fileID: 0}
  m_LightingSettings: {fileID: 4890085278179872738, guid: 440707de3f477f04e925ad7489311449, type: 2}
--- !u!196 &4
NavMeshSettings:
  serializedVersion: 2
  m_ObjectHideFlags: 0
  m_BuildSettings:
    serializedVersion: 3
    agentTypeID: 0
    agentRadius: 0.5
    agentHeight: 2
    agentSlope: 45
    agentClimb: 0.4
    ledgeDropHeight: 0
    maxJumpAcrossDistance: 0
    minRegionArea: 2
    manualCellSize: 0
    cellSize: 0.16666667
    manualTileSize: 0
    tileSize: 256
    buildHeightMesh: 0
    maxJobWorkers: 0
    preserveTilesOutsideBounds: 0
    debug:
      m_Flags: 0
  m_NavMeshData: {fileID: 0}
--- !u!1001 &9651362
PrefabInstance:
  m_ObjectHideFlags: 0
  serializedVersion: 2
  m_Modification:
    serializedVersion: 3
    m_TransformParent: {fileID: 934999573}
    m_Modifications:
    - target: {fileID: 4000012563103364, guid: 15f6ede18f3612f4da438c6094cf4b10, type: 3}
      propertyPath: m_RootOrder
      value: 0
      objectReference: {fileID: 0}
    - target: {fileID: 4000012563103364, guid: 15f6ede18f3612f4da438c6094cf4b10, type: 3}
      propertyPath: m_LocalPosition.x
      value: -0
      objectReference: {fileID: 0}
    - target: {fileID: 4000012563103364, guid: 15f6ede18f3612f4da438c6094cf4b10, type: 3}
      propertyPath: m_LocalPosition.y
      value: 0
      objectReference: {fileID: 0}
    - target: {fileID: 4000012563103364, guid: 15f6ede18f3612f4da438c6094cf4b10, type: 3}
      propertyPath: m_LocalPosition.z
      value: 0
      objectReference: {fileID: 0}
    - target: {fileID: 4000012563103364, guid: 15f6ede18f3612f4da438c6094cf4b10, type: 3}
      propertyPath: m_LocalRotation.w
      value: 1
      objectReference: {fileID: 0}
    - target: {fileID: 4000012563103364, guid: 15f6ede18f3612f4da438c6094cf4b10, type: 3}
      propertyPath: m_LocalRotation.x
      value: 0.0000018099951
      objectReference: {fileID: 0}
    - target: {fileID: 4000012563103364, guid: 15f6ede18f3612f4da438c6094cf4b10, type: 3}
      propertyPath: m_LocalRotation.y
      value: 0
      objectReference: {fileID: 0}
    - target: {fileID: 4000012563103364, guid: 15f6ede18f3612f4da438c6094cf4b10, type: 3}
      propertyPath: m_LocalRotation.z
      value: -0
      objectReference: {fileID: 0}
    m_RemovedComponents: []
    m_RemovedGameObjects: []
    m_AddedGameObjects: []
    m_AddedComponents: []
  m_SourcePrefab: {fileID: 100100000, guid: 15f6ede18f3612f4da438c6094cf4b10, type: 3}
--- !u!4 &9651363 stripped
Transform:
  m_CorrespondingSourceObject: {fileID: 4000012563103364, guid: 15f6ede18f3612f4da438c6094cf4b10, type: 3}
  m_PrefabInstance: {fileID: 9651362}
  m_PrefabAsset: {fileID: 0}
--- !u!1 &14361158
GameObject:
  m_ObjectHideFlags: 0
  m_CorrespondingSourceObject: {fileID: 0}
  m_PrefabInstance: {fileID: 0}
  m_PrefabAsset: {fileID: 0}
  serializedVersion: 6
  m_Component:
  - component: {fileID: 14361160}
  - component: {fileID: 14361159}
  m_Layer: 0
  m_Name: Directional Light
  m_TagString: Untagged
  m_Icon: {fileID: 0}
  m_NavMeshLayer: 0
  m_StaticEditorFlags: 0
  m_IsActive: 1
--- !u!108 &14361159
Light:
  m_ObjectHideFlags: 0
  m_CorrespondingSourceObject: {fileID: 0}
  m_PrefabInstance: {fileID: 0}
  m_PrefabAsset: {fileID: 0}
  m_GameObject: {fileID: 14361158}
  m_Enabled: 1
  serializedVersion: 10
  m_Type: 1
  m_Shape: 0
  m_Color: {r: 1, g: 0.95686275, b: 0.8392157, a: 1}
  m_Intensity: 1
  m_Range: 10
  m_SpotAngle: 30
  m_InnerSpotAngle: 21.80208
  m_CookieSize: 10
  m_Shadows:
    m_Type: 1
    m_Resolution: 3
    m_CustomResolution: -1
    m_Strength: 0.684
    m_Bias: 0
    m_NormalBias: 0
    m_NearPlane: 0.1
    m_CullingMatrixOverride:
      e00: 1
      e01: 0
      e02: 0
      e03: 0
      e10: 0
      e11: 1
      e12: 0
      e13: 0
      e20: 0
      e21: 0
      e22: 1
      e23: 0
      e30: 0
      e31: 0
      e32: 0
      e33: 1
    m_UseCullingMatrixOverride: 0
  m_Cookie: {fileID: 0}
  m_DrawHalo: 0
  m_Flare: {fileID: 0}
  m_RenderMode: 0
  m_CullingMask:
    serializedVersion: 2
    m_Bits: 4294967295
  m_RenderingLayerMask: 1
  m_Lightmapping: 4
  m_LightShadowCasterMode: 0
  m_AreaSize: {x: 1, y: 1}
  m_BounceIntensity: 1
  m_ColorTemperature: 6570
  m_UseColorTemperature: 0
  m_BoundingSphereOverride: {x: 0, y: 0, z: 0, w: 0}
  m_UseBoundingSphereOverride: 0
  m_UseViewFrustumForShadowCasterCull: 1
  m_ShadowRadius: 0
  m_ShadowAngle: 0
--- !u!4 &14361160
Transform:
  m_ObjectHideFlags: 0
  m_CorrespondingSourceObject: {fileID: 0}
  m_PrefabInstance: {fileID: 0}
  m_PrefabAsset: {fileID: 0}
  m_GameObject: {fileID: 14361158}
  m_LocalRotation: {x: 0.5954166, y: -0.6005989, z: 0.067257114, w: 0.52937376}
  m_LocalPosition: {x: 2.498, y: 1.984, z: 0}
  m_LocalScale: {x: 1, y: 1, z: 1}
  m_ConstrainProportionsScale: 0
  m_Children: []
  m_Father: {fileID: 0}
  m_RootOrder: 1
  m_LocalEulerAnglesHint: {x: 45.328003, y: -128.026, z: -66.568}
--- !u!1001 &57017249
PrefabInstance:
  m_ObjectHideFlags: 0
  serializedVersion: 2
  m_Modification:
    serializedVersion: 3
    m_TransformParent: {fileID: 1489646738}
    m_Modifications:
    - target: {fileID: 4000010970397536, guid: 82a7e6d7a0882a24d96a3e0cbf31e122, type: 3}
      propertyPath: m_RootOrder
      value: 5
      objectReference: {fileID: 0}
    - target: {fileID: 4000010970397536, guid: 82a7e6d7a0882a24d96a3e0cbf31e122, type: 3}
      propertyPath: m_LocalPosition.x
      value: 5
      objectReference: {fileID: 0}
    - target: {fileID: 4000010970397536, guid: 82a7e6d7a0882a24d96a3e0cbf31e122, type: 3}
      propertyPath: m_LocalPosition.y
      value: -0
      objectReference: {fileID: 0}
    - target: {fileID: 4000010970397536, guid: 82a7e6d7a0882a24d96a3e0cbf31e122, type: 3}
      propertyPath: m_LocalPosition.z
      value: -7.5
      objectReference: {fileID: 0}
    - target: {fileID: 4000010970397536, guid: 82a7e6d7a0882a24d96a3e0cbf31e122, type: 3}
      propertyPath: m_LocalRotation.w
      value: 1
      objectReference: {fileID: 0}
    - target: {fileID: 4000010970397536, guid: 82a7e6d7a0882a24d96a3e0cbf31e122, type: 3}
      propertyPath: m_LocalRotation.x
      value: -0
      objectReference: {fileID: 0}
    - target: {fileID: 4000010970397536, guid: 82a7e6d7a0882a24d96a3e0cbf31e122, type: 3}
      propertyPath: m_LocalRotation.y
      value: -0
      objectReference: {fileID: 0}
    - target: {fileID: 4000010970397536, guid: 82a7e6d7a0882a24d96a3e0cbf31e122, type: 3}
      propertyPath: m_LocalRotation.z
      value: -0
      objectReference: {fileID: 0}
    m_RemovedComponents: []
    m_RemovedGameObjects: []
    m_AddedGameObjects: []
    m_AddedComponents: []
  m_SourcePrefab: {fileID: 100100000, guid: 82a7e6d7a0882a24d96a3e0cbf31e122, type: 3}
--- !u!4 &57017250 stripped
Transform:
  m_CorrespondingSourceObject: {fileID: 4000010970397536, guid: 82a7e6d7a0882a24d96a3e0cbf31e122, type: 3}
  m_PrefabInstance: {fileID: 57017249}
  m_PrefabAsset: {fileID: 0}
--- !u!1001 &75371331
PrefabInstance:
  m_ObjectHideFlags: 0
  serializedVersion: 2
  m_Modification:
    serializedVersion: 3
    m_TransformParent: {fileID: 1489646738}
    m_Modifications:
    - target: {fileID: 4000012170992174, guid: 7136d990e102e7f4c9225a4f1759d384, type: 3}
      propertyPath: m_RootOrder
      value: 4
      objectReference: {fileID: 0}
    - target: {fileID: 4000012170992174, guid: 7136d990e102e7f4c9225a4f1759d384, type: 3}
      propertyPath: m_LocalPosition.x
      value: 7.25
      objectReference: {fileID: 0}
    - target: {fileID: 4000012170992174, guid: 7136d990e102e7f4c9225a4f1759d384, type: 3}
      propertyPath: m_LocalPosition.y
      value: -0
      objectReference: {fileID: 0}
    - target: {fileID: 4000012170992174, guid: 7136d990e102e7f4c9225a4f1759d384, type: 3}
      propertyPath: m_LocalPosition.z
      value: -7.5
      objectReference: {fileID: 0}
    - target: {fileID: 4000012170992174, guid: 7136d990e102e7f4c9225a4f1759d384, type: 3}
      propertyPath: m_LocalRotation.w
      value: 1
      objectReference: {fileID: 0}
    - target: {fileID: 4000012170992174, guid: 7136d990e102e7f4c9225a4f1759d384, type: 3}
      propertyPath: m_LocalRotation.x
      value: -0
      objectReference: {fileID: 0}
    - target: {fileID: 4000012170992174, guid: 7136d990e102e7f4c9225a4f1759d384, type: 3}
      propertyPath: m_LocalRotation.y
      value: -0
      objectReference: {fileID: 0}
    - target: {fileID: 4000012170992174, guid: 7136d990e102e7f4c9225a4f1759d384, type: 3}
      propertyPath: m_LocalRotation.z
      value: -0
      objectReference: {fileID: 0}
    m_RemovedComponents: []
    m_RemovedGameObjects: []
    m_AddedGameObjects: []
    m_AddedComponents: []
  m_SourcePrefab: {fileID: 100100000, guid: 7136d990e102e7f4c9225a4f1759d384, type: 3}
--- !u!4 &75371332 stripped
Transform:
  m_CorrespondingSourceObject: {fileID: 4000012170992174, guid: 7136d990e102e7f4c9225a4f1759d384, type: 3}
  m_PrefabInstance: {fileID: 75371331}
  m_PrefabAsset: {fileID: 0}
--- !u!1001 &217310297
PrefabInstance:
  m_ObjectHideFlags: 0
  serializedVersion: 2
  m_Modification:
    serializedVersion: 3
    m_TransformParent: {fileID: 1510059306}
    m_Modifications:
    - target: {fileID: 4000012891008124, guid: ad5c618c7c0b0c24ab586d25247fdb07, type: 3}
      propertyPath: m_RootOrder
      value: 0
      objectReference: {fileID: 0}
    - target: {fileID: 4000012891008124, guid: ad5c618c7c0b0c24ab586d25247fdb07, type: 3}
      propertyPath: m_LocalPosition.x
      value: -4
      objectReference: {fileID: 0}
    - target: {fileID: 4000012891008124, guid: ad5c618c7c0b0c24ab586d25247fdb07, type: 3}
      propertyPath: m_LocalPosition.y
      value: 0
      objectReference: {fileID: 0}
    - target: {fileID: 4000012891008124, guid: ad5c618c7c0b0c24ab586d25247fdb07, type: 3}
      propertyPath: m_LocalPosition.z
      value: 0
      objectReference: {fileID: 0}
    - target: {fileID: 4000012891008124, guid: ad5c618c7c0b0c24ab586d25247fdb07, type: 3}
      propertyPath: m_LocalRotation.w
      value: 1
      objectReference: {fileID: 0}
    - target: {fileID: 4000012891008124, guid: ad5c618c7c0b0c24ab586d25247fdb07, type: 3}
      propertyPath: m_LocalRotation.x
      value: 0.0000018099951
      objectReference: {fileID: 0}
    - target: {fileID: 4000012891008124, guid: ad5c618c7c0b0c24ab586d25247fdb07, type: 3}
      propertyPath: m_LocalRotation.y
      value: 0
      objectReference: {fileID: 0}
    - target: {fileID: 4000012891008124, guid: ad5c618c7c0b0c24ab586d25247fdb07, type: 3}
      propertyPath: m_LocalRotation.z
      value: -0
      objectReference: {fileID: 0}
    m_RemovedComponents: []
    m_RemovedGameObjects: []
    m_AddedGameObjects: []
    m_AddedComponents: []
  m_SourcePrefab: {fileID: 100100000, guid: ad5c618c7c0b0c24ab586d25247fdb07, type: 3}
--- !u!4 &217310298 stripped
Transform:
  m_CorrespondingSourceObject: {fileID: 4000012891008124, guid: ad5c618c7c0b0c24ab586d25247fdb07, type: 3}
  m_PrefabInstance: {fileID: 217310297}
  m_PrefabAsset: {fileID: 0}
--- !u!1001 &367796965
PrefabInstance:
  m_ObjectHideFlags: 0
  serializedVersion: 2
  m_Modification:
    serializedVersion: 3
    m_TransformParent: {fileID: 934999573}
    m_Modifications:
    - target: {fileID: 4000011174993886, guid: 641ca19b61fc754488d0023c9e002d77, type: 3}
      propertyPath: m_RootOrder
      value: 1
      objectReference: {fileID: 0}
    - target: {fileID: 4000011174993886, guid: 641ca19b61fc754488d0023c9e002d77, type: 3}
      propertyPath: m_LocalPosition.x
      value: -1
      objectReference: {fileID: 0}
    - target: {fileID: 4000011174993886, guid: 641ca19b61fc754488d0023c9e002d77, type: 3}
      propertyPath: m_LocalPosition.y
      value: 0
      objectReference: {fileID: 0}
    - target: {fileID: 4000011174993886, guid: 641ca19b61fc754488d0023c9e002d77, type: 3}
      propertyPath: m_LocalPosition.z
      value: 0
      objectReference: {fileID: 0}
    - target: {fileID: 4000011174993886, guid: 641ca19b61fc754488d0023c9e002d77, type: 3}
      propertyPath: m_LocalRotation.w
      value: 1
      objectReference: {fileID: 0}
    - target: {fileID: 4000011174993886, guid: 641ca19b61fc754488d0023c9e002d77, type: 3}
      propertyPath: m_LocalRotation.x
      value: 0.0000018099951
      objectReference: {fileID: 0}
    - target: {fileID: 4000011174993886, guid: 641ca19b61fc754488d0023c9e002d77, type: 3}
      propertyPath: m_LocalRotation.y
      value: 0
      objectReference: {fileID: 0}
    - target: {fileID: 4000011174993886, guid: 641ca19b61fc754488d0023c9e002d77, type: 3}
      propertyPath: m_LocalRotation.z
      value: -0
      objectReference: {fileID: 0}
    m_RemovedComponents: []
    m_RemovedGameObjects: []
    m_AddedGameObjects: []
    m_AddedComponents: []
  m_SourcePrefab: {fileID: 100100000, guid: 641ca19b61fc754488d0023c9e002d77, type: 3}
--- !u!4 &367796966 stripped
Transform:
  m_CorrespondingSourceObject: {fileID: 4000011174993886, guid: 641ca19b61fc754488d0023c9e002d77, type: 3}
  m_PrefabInstance: {fileID: 367796965}
  m_PrefabAsset: {fileID: 0}
--- !u!1001 &531800772
PrefabInstance:
  m_ObjectHideFlags: 0
  serializedVersion: 2
  m_Modification:
    serializedVersion: 3
    m_TransformParent: {fileID: 1510059306}
    m_Modifications:
    - target: {fileID: 4000010498100874, guid: 92c68aaf8da97324793788789dbb9071, type: 3}
      propertyPath: m_RootOrder
      value: 2
      objectReference: {fileID: 0}
    - target: {fileID: 4000010498100874, guid: 92c68aaf8da97324793788789dbb9071, type: 3}
      propertyPath: m_LocalPosition.x
      value: 6
      objectReference: {fileID: 0}
    - target: {fileID: 4000010498100874, guid: 92c68aaf8da97324793788789dbb9071, type: 3}
      propertyPath: m_LocalPosition.y
      value: 0
      objectReference: {fileID: 0}
    - target: {fileID: 4000010498100874, guid: 92c68aaf8da97324793788789dbb9071, type: 3}
      propertyPath: m_LocalPosition.z
      value: 0
      objectReference: {fileID: 0}
    - target: {fileID: 4000010498100874, guid: 92c68aaf8da97324793788789dbb9071, type: 3}
      propertyPath: m_LocalRotation.w
      value: 1
      objectReference: {fileID: 0}
    - target: {fileID: 4000010498100874, guid: 92c68aaf8da97324793788789dbb9071, type: 3}
      propertyPath: m_LocalRotation.x
      value: 0.0000018099951
      objectReference: {fileID: 0}
    - target: {fileID: 4000010498100874, guid: 92c68aaf8da97324793788789dbb9071, type: 3}
      propertyPath: m_LocalRotation.y
      value: 0
      objectReference: {fileID: 0}
    - target: {fileID: 4000010498100874, guid: 92c68aaf8da97324793788789dbb9071, type: 3}
      propertyPath: m_LocalRotation.z
      value: -0
      objectReference: {fileID: 0}
    m_RemovedComponents: []
    m_RemovedGameObjects: []
    m_AddedGameObjects: []
    m_AddedComponents: []
  m_SourcePrefab: {fileID: 100100000, guid: 92c68aaf8da97324793788789dbb9071, type: 3}
--- !u!4 &531800773 stripped
Transform:
  m_CorrespondingSourceObject: {fileID: 4000010498100874, guid: 92c68aaf8da97324793788789dbb9071, type: 3}
  m_PrefabInstance: {fileID: 531800772}
  m_PrefabAsset: {fileID: 0}
--- !u!1001 &549261011
PrefabInstance:
  m_ObjectHideFlags: 0
  serializedVersion: 2
  m_Modification:
    serializedVersion: 3
    m_TransformParent: {fileID: 1375443594}
    m_Modifications:
    - target: {fileID: 4000012614743612, guid: ae01dc8ef29a4024cb09c40a9b1ce362, type: 3}
      propertyPath: m_RootOrder
      value: 0
      objectReference: {fileID: 0}
    - target: {fileID: 4000012614743612, guid: ae01dc8ef29a4024cb09c40a9b1ce362, type: 3}
      propertyPath: m_LocalPosition.x
      value: -1
      objectReference: {fileID: 0}
    - target: {fileID: 4000012614743612, guid: ae01dc8ef29a4024cb09c40a9b1ce362, type: 3}
      propertyPath: m_LocalPosition.y
      value: 0
      objectReference: {fileID: 0}
    - target: {fileID: 4000012614743612, guid: ae01dc8ef29a4024cb09c40a9b1ce362, type: 3}
      propertyPath: m_LocalPosition.z
      value: 0
      objectReference: {fileID: 0}
    - target: {fileID: 4000012614743612, guid: ae01dc8ef29a4024cb09c40a9b1ce362, type: 3}
      propertyPath: m_LocalRotation.w
      value: 1
      objectReference: {fileID: 0}
    - target: {fileID: 4000012614743612, guid: ae01dc8ef29a4024cb09c40a9b1ce362, type: 3}
      propertyPath: m_LocalRotation.x
      value: 0.0000018099951
      objectReference: {fileID: 0}
    - target: {fileID: 4000012614743612, guid: ae01dc8ef29a4024cb09c40a9b1ce362, type: 3}
      propertyPath: m_LocalRotation.y
      value: 0
      objectReference: {fileID: 0}
    - target: {fileID: 4000012614743612, guid: ae01dc8ef29a4024cb09c40a9b1ce362, type: 3}
      propertyPath: m_LocalRotation.z
      value: -0
      objectReference: {fileID: 0}
    m_RemovedComponents: []
    m_RemovedGameObjects: []
    m_AddedGameObjects: []
    m_AddedComponents: []
  m_SourcePrefab: {fileID: 100100000, guid: ae01dc8ef29a4024cb09c40a9b1ce362, type: 3}
--- !u!4 &549261012 stripped
Transform:
  m_CorrespondingSourceObject: {fileID: 4000012614743612, guid: ae01dc8ef29a4024cb09c40a9b1ce362, type: 3}
  m_PrefabInstance: {fileID: 549261011}
  m_PrefabAsset: {fileID: 0}
--- !u!1001 &551682835
PrefabInstance:
  m_ObjectHideFlags: 0
  serializedVersion: 2
  m_Modification:
    serializedVersion: 3
    m_TransformParent: {fileID: 1393019501}
    m_Modifications:
    - target: {fileID: 4000011082694022, guid: aa3b1ae02ed761c47854fc891a3f449a, type: 3}
      propertyPath: m_RootOrder
      value: 2
      objectReference: {fileID: 0}
    - target: {fileID: 4000011082694022, guid: aa3b1ae02ed761c47854fc891a3f449a, type: 3}
      propertyPath: m_LocalPosition.x
      value: -1
      objectReference: {fileID: 0}
    - target: {fileID: 4000011082694022, guid: aa3b1ae02ed761c47854fc891a3f449a, type: 3}
      propertyPath: m_LocalPosition.y
      value: 0
      objectReference: {fileID: 0}
    - target: {fileID: 4000011082694022, guid: aa3b1ae02ed761c47854fc891a3f449a, type: 3}
      propertyPath: m_LocalPosition.z
      value: 0
      objectReference: {fileID: 0}
    - target: {fileID: 4000011082694022, guid: aa3b1ae02ed761c47854fc891a3f449a, type: 3}
      propertyPath: m_LocalRotation.w
      value: 1
      objectReference: {fileID: 0}
    - target: {fileID: 4000011082694022, guid: aa3b1ae02ed761c47854fc891a3f449a, type: 3}
      propertyPath: m_LocalRotation.x
      value: 0.0000018099951
      objectReference: {fileID: 0}
    - target: {fileID: 4000011082694022, guid: aa3b1ae02ed761c47854fc891a3f449a, type: 3}
      propertyPath: m_LocalRotation.y
      value: 0
      objectReference: {fileID: 0}
    - target: {fileID: 4000011082694022, guid: aa3b1ae02ed761c47854fc891a3f449a, type: 3}
      propertyPath: m_LocalRotation.z
      value: -0
      objectReference: {fileID: 0}
    m_RemovedComponents: []
    m_RemovedGameObjects: []
    m_AddedGameObjects: []
    m_AddedComponents: []
  m_SourcePrefab: {fileID: 100100000, guid: aa3b1ae02ed761c47854fc891a3f449a, type: 3}
--- !u!4 &551682836 stripped
Transform:
  m_CorrespondingSourceObject: {fileID: 4000011082694022, guid: aa3b1ae02ed761c47854fc891a3f449a, type: 3}
  m_PrefabInstance: {fileID: 551682835}
  m_PrefabAsset: {fileID: 0}
--- !u!1001 &702311554
PrefabInstance:
  m_ObjectHideFlags: 0
  serializedVersion: 2
  m_Modification:
    serializedVersion: 3
    m_TransformParent: {fileID: 1510059306}
    m_Modifications:
    - target: {fileID: 4000011406744534, guid: 843b0496bdaa33049bbcce776356a428, type: 3}
      propertyPath: m_RootOrder
      value: 6
      objectReference: {fileID: 0}
    - target: {fileID: 4000011406744534, guid: 843b0496bdaa33049bbcce776356a428, type: 3}
      propertyPath: m_LocalPosition.x
      value: -1
      objectReference: {fileID: 0}
    - target: {fileID: 4000011406744534, guid: 843b0496bdaa33049bbcce776356a428, type: 3}
      propertyPath: m_LocalPosition.y
      value: 0
      objectReference: {fileID: 0}
    - target: {fileID: 4000011406744534, guid: 843b0496bdaa33049bbcce776356a428, type: 3}
      propertyPath: m_LocalPosition.z
      value: 0
      objectReference: {fileID: 0}
    - target: {fileID: 4000011406744534, guid: 843b0496bdaa33049bbcce776356a428, type: 3}
      propertyPath: m_LocalRotation.w
      value: 1
      objectReference: {fileID: 0}
    - target: {fileID: 4000011406744534, guid: 843b0496bdaa33049bbcce776356a428, type: 3}
      propertyPath: m_LocalRotation.x
      value: 0.0000018099951
      objectReference: {fileID: 0}
    - target: {fileID: 4000011406744534, guid: 843b0496bdaa33049bbcce776356a428, type: 3}
      propertyPath: m_LocalRotation.y
      value: 0
      objectReference: {fileID: 0}
    - target: {fileID: 4000011406744534, guid: 843b0496bdaa33049bbcce776356a428, type: 3}
      propertyPath: m_LocalRotation.z
      value: -0
      objectReference: {fileID: 0}
    m_RemovedComponents: []
    m_RemovedGameObjects: []
    m_AddedGameObjects: []
    m_AddedComponents: []
  m_SourcePrefab: {fileID: 100100000, guid: 843b0496bdaa33049bbcce776356a428, type: 3}
--- !u!4 &702311555 stripped
Transform:
  m_CorrespondingSourceObject: {fileID: 4000011406744534, guid: 843b0496bdaa33049bbcce776356a428, type: 3}
  m_PrefabInstance: {fileID: 702311554}
  m_PrefabAsset: {fileID: 0}
--- !u!1001 &783328661
PrefabInstance:
  m_ObjectHideFlags: 0
  serializedVersion: 2
  m_Modification:
    serializedVersion: 3
    m_TransformParent: {fileID: 1510059306}
    m_Modifications:
    - target: {fileID: 4000010573783758, guid: 980d4d932615d1f4c8345e8ebe250c88, type: 3}
      propertyPath: m_RootOrder
      value: 5
      objectReference: {fileID: 0}
    - target: {fileID: 4000010573783758, guid: 980d4d932615d1f4c8345e8ebe250c88, type: 3}
      propertyPath: m_LocalPosition.x
      value: 0.5
      objectReference: {fileID: 0}
    - target: {fileID: 4000010573783758, guid: 980d4d932615d1f4c8345e8ebe250c88, type: 3}
      propertyPath: m_LocalPosition.y
      value: 0
      objectReference: {fileID: 0}
    - target: {fileID: 4000010573783758, guid: 980d4d932615d1f4c8345e8ebe250c88, type: 3}
      propertyPath: m_LocalPosition.z
      value: 0
      objectReference: {fileID: 0}
    - target: {fileID: 4000010573783758, guid: 980d4d932615d1f4c8345e8ebe250c88, type: 3}
      propertyPath: m_LocalRotation.w
      value: 1
      objectReference: {fileID: 0}
    - target: {fileID: 4000010573783758, guid: 980d4d932615d1f4c8345e8ebe250c88, type: 3}
      propertyPath: m_LocalRotation.x
      value: 0.0000018099951
      objectReference: {fileID: 0}
    - target: {fileID: 4000010573783758, guid: 980d4d932615d1f4c8345e8ebe250c88, type: 3}
      propertyPath: m_LocalRotation.y
      value: 0
      objectReference: {fileID: 0}
    - target: {fileID: 4000010573783758, guid: 980d4d932615d1f4c8345e8ebe250c88, type: 3}
      propertyPath: m_LocalRotation.z
      value: -0
      objectReference: {fileID: 0}
    m_RemovedComponents: []
    m_RemovedGameObjects: []
    m_AddedGameObjects: []
    m_AddedComponents: []
  m_SourcePrefab: {fileID: 100100000, guid: 980d4d932615d1f4c8345e8ebe250c88, type: 3}
--- !u!4 &783328662 stripped
Transform:
  m_CorrespondingSourceObject: {fileID: 4000010573783758, guid: 980d4d932615d1f4c8345e8ebe250c88, type: 3}
  m_PrefabInstance: {fileID: 783328661}
  m_PrefabAsset: {fileID: 0}
--- !u!1 &870000216
GameObject:
  m_ObjectHideFlags: 0
  m_CorrespondingSourceObject: {fileID: 0}
  m_PrefabInstance: {fileID: 0}
  m_PrefabAsset: {fileID: 0}
  serializedVersion: 6
  m_Component:
  - component: {fileID: 870000221}
  - component: {fileID: 870000220}
  - component: {fileID: 870000218}
  - component: {fileID: 870000217}
  m_Layer: 0
  m_Name: Main Camera
  m_TagString: MainCamera
  m_Icon: {fileID: 0}
  m_NavMeshLayer: 0
  m_StaticEditorFlags: 0
  m_IsActive: 1
--- !u!81 &870000217
AudioListener:
  m_ObjectHideFlags: 0
  m_CorrespondingSourceObject: {fileID: 0}
  m_PrefabInstance: {fileID: 0}
  m_PrefabAsset: {fileID: 0}
  m_GameObject: {fileID: 870000216}
  m_Enabled: 1
--- !u!124 &870000218
Behaviour:
  m_ObjectHideFlags: 0
  m_CorrespondingSourceObject: {fileID: 0}
  m_PrefabInstance: {fileID: 0}
  m_PrefabAsset: {fileID: 0}
  m_GameObject: {fileID: 870000216}
  m_Enabled: 1
--- !u!20 &870000220
Camera:
  m_ObjectHideFlags: 0
  m_CorrespondingSourceObject: {fileID: 0}
  m_PrefabInstance: {fileID: 0}
  m_PrefabAsset: {fileID: 0}
  m_GameObject: {fileID: 870000216}
  m_Enabled: 1
  serializedVersion: 2
  m_ClearFlags: 2
  m_BackGroundColor: {r: 0.14705884, g: 0.14705884, b: 0.14705884, a: 0}
  m_projectionMatrixMode: 1
  m_GateFitMode: 2
  m_FOVAxisMode: 0
  m_Iso: 200
  m_ShutterSpeed: 0.005
  m_Aperture: 16
  m_FocusDistance: 10
  m_FocalLength: 50
  m_BladeCount: 5
  m_Curvature: {x: 2, y: 11}
  m_BarrelClipping: 0.25
  m_Anamorphism: 0
  m_SensorSize: {x: 36, y: 24}
  m_LensShift: {x: 0, y: 0}
  m_NormalizedViewPortRect:
    serializedVersion: 2
    x: 0
    y: 0
    width: 1
    height: 1
  near clip plane: 0.3
  far clip plane: 1000
  field of view: 60
  orthographic: 0
  orthographic size: 5
  m_Depth: -1
  m_CullingMask:
    serializedVersion: 2
    m_Bits: 4294967295
  m_RenderingPath: -1
  m_TargetTexture: {fileID: 0}
  m_TargetDisplay: 0
  m_TargetEye: 3
  m_HDR: 0
  m_AllowMSAA: 1
  m_AllowDynamicResolution: 0
  m_ForceIntoRT: 0
  m_OcclusionCulling: 1
  m_StereoConvergence: 10
  m_StereoSeparation: 0.022
--- !u!4 &870000221
Transform:
  m_ObjectHideFlags: 0
  m_CorrespondingSourceObject: {fileID: 0}
  m_PrefabInstance: {fileID: 0}
  m_PrefabAsset: {fileID: 0}
  m_GameObject: {fileID: 870000216}
  m_LocalRotation: {x: -0.0598417, y: 0.9213779, z: -0.3502951, w: -0.15740104}
  m_LocalPosition: {x: 6.758735, y: 14.49478, z: 3.9763715}
  m_LocalScale: {x: 1, y: 1, z: 1}
  m_ConstrainProportionsScale: 0
  m_Children: []
  m_Father: {fileID: 0}
  m_RootOrder: 0
  m_LocalEulerAnglesHint: {x: 15.65, y: 164.03, z: 0}
--- !u!1001 &881143978
PrefabInstance:
  m_ObjectHideFlags: 0
  serializedVersion: 2
  m_Modification:
    serializedVersion: 3
    m_TransformParent: {fileID: 1510059306}
    m_Modifications:
    - target: {fileID: 4000012017360650, guid: 8334a8307b4c8734ca624901aaa135eb, type: 3}
      propertyPath: m_RootOrder
      value: 1
      objectReference: {fileID: 0}
    - target: {fileID: 4000012017360650, guid: 8334a8307b4c8734ca624901aaa135eb, type: 3}
      propertyPath: m_LocalPosition.x
      value: -2.5
      objectReference: {fileID: 0}
    - target: {fileID: 4000012017360650, guid: 8334a8307b4c8734ca624901aaa135eb, type: 3}
      propertyPath: m_LocalPosition.y
      value: 0
      objectReference: {fileID: 0}
    - target: {fileID: 4000012017360650, guid: 8334a8307b4c8734ca624901aaa135eb, type: 3}
      propertyPath: m_LocalPosition.z
      value: 0
      objectReference: {fileID: 0}
    - target: {fileID: 4000012017360650, guid: 8334a8307b4c8734ca624901aaa135eb, type: 3}
      propertyPath: m_LocalRotation.w
      value: 1
      objectReference: {fileID: 0}
    - target: {fileID: 4000012017360650, guid: 8334a8307b4c8734ca624901aaa135eb, type: 3}
      propertyPath: m_LocalRotation.x
      value: 0.0000018099951
      objectReference: {fileID: 0}
    - target: {fileID: 4000012017360650, guid: 8334a8307b4c8734ca624901aaa135eb, type: 3}
      propertyPath: m_LocalRotation.y
      value: 0
      objectReference: {fileID: 0}
    - target: {fileID: 4000012017360650, guid: 8334a8307b4c8734ca624901aaa135eb, type: 3}
      propertyPath: m_LocalRotation.z
      value: -0
      objectReference: {fileID: 0}
    m_RemovedComponents: []
    m_RemovedGameObjects: []
    m_AddedGameObjects: []
    m_AddedComponents: []
  m_SourcePrefab: {fileID: 100100000, guid: 8334a8307b4c8734ca624901aaa135eb, type: 3}
--- !u!4 &881143979 stripped
Transform:
  m_CorrespondingSourceObject: {fileID: 4000012017360650, guid: 8334a8307b4c8734ca624901aaa135eb, type: 3}
  m_PrefabInstance: {fileID: 881143978}
  m_PrefabAsset: {fileID: 0}
--- !u!1 &934999572
GameObject:
  m_ObjectHideFlags: 0
  m_CorrespondingSourceObject: {fileID: 0}
  m_PrefabInstance: {fileID: 0}
  m_PrefabAsset: {fileID: 0}
  serializedVersion: 6
  m_Component:
  - component: {fileID: 934999573}
  m_Layer: 0
  m_Name: Fences
  m_TagString: Untagged
  m_Icon: {fileID: 0}
  m_NavMeshLayer: 0
  m_StaticEditorFlags: 0
  m_IsActive: 1
--- !u!4 &934999573
Transform:
  m_ObjectHideFlags: 0
  m_CorrespondingSourceObject: {fileID: 0}
  m_PrefabInstance: {fileID: 0}
  m_PrefabAsset: {fileID: 0}
  m_GameObject: {fileID: 934999572}
  m_LocalRotation: {x: -0.0000018099951, y: 0, z: -0, w: 1}
  m_LocalPosition: {x: 12, y: -0, z: -20}
  m_LocalScale: {x: 1, y: 1, z: 1}
  m_ConstrainProportionsScale: 0
  m_Children:
  - {fileID: 9651363}
  - {fileID: 367796966}
  - {fileID: 1209825520}
  - {fileID: 1618672793}
  m_Father: {fileID: 1489646738}
  m_RootOrder: 2
  m_LocalEulerAnglesHint: {x: 0, y: 0, z: 0}
--- !u!1 &1028600793
GameObject:
  m_ObjectHideFlags: 0
  m_CorrespondingSourceObject: {fileID: 0}
  m_PrefabInstance: {fileID: 0}
  m_PrefabAsset: {fileID: 0}
  serializedVersion: 6
  m_Component:
  - component: {fileID: 1028600794}
  m_Layer: 0
  m_Name: Models
  m_TagString: Untagged
  m_Icon: {fileID: 0}
  m_NavMeshLayer: 0
  m_StaticEditorFlags: 0
  m_IsActive: 1
--- !u!4 &1028600794
Transform:
  m_ObjectHideFlags: 0
  m_CorrespondingSourceObject: {fileID: 0}
  m_PrefabInstance: {fileID: 0}
  m_PrefabAsset: {fileID: 0}
  m_GameObject: {fileID: 1028600793}
  m_LocalRotation: {x: 0, y: 0, z: 0, w: 1}
  m_LocalPosition: {x: 0, y: 0, z: 0}
  m_LocalScale: {x: 1, y: 1, z: 1}
  m_ConstrainProportionsScale: 0
  m_Children: []
  m_Father: {fileID: 0}
  m_RootOrder: 2
  m_LocalEulerAnglesHint: {x: 0, y: 0, z: 0}
--- !u!1 &1151799156
GameObject:
  m_ObjectHideFlags: 0
  m_CorrespondingSourceObject: {fileID: 0}
  m_PrefabInstance: {fileID: 0}
  m_PrefabAsset: {fileID: 0}
  serializedVersion: 6
  m_Component:
  - component: {fileID: 1151799157}
  m_Layer: 0
  m_Name: Roads
  m_TagString: Untagged
  m_Icon: {fileID: 0}
  m_NavMeshLayer: 0
  m_StaticEditorFlags: 0
  m_IsActive: 1
--- !u!4 &1151799157
Transform:
  m_ObjectHideFlags: 0
  m_CorrespondingSourceObject: {fileID: 0}
  m_PrefabInstance: {fileID: 0}
  m_PrefabAsset: {fileID: 0}
  m_GameObject: {fileID: 1151799156}
  m_LocalRotation: {x: -0, y: -0, z: -0, w: 1}
  m_LocalPosition: {x: 0, y: 0, z: 0}
  m_LocalScale: {x: 1, y: 1, z: 1}
  m_ConstrainProportionsScale: 0
  m_Children:
  - {fileID: 1981736316}
  - {fileID: 1173633528}
  - {fileID: 1875019326}
  m_Father: {fileID: 1489646738}
  m_RootOrder: 0
  m_LocalEulerAnglesHint: {x: 0, y: 0, z: 0}
--- !u!1001 &1173633527
PrefabInstance:
  m_ObjectHideFlags: 0
  serializedVersion: 2
  m_Modification:
    serializedVersion: 3
    m_TransformParent: {fileID: 1151799157}
    m_Modifications:
    - target: {fileID: 4000013992759630, guid: 1214f7eeae79bd84f86047c54e8865dc, type: 3}
      propertyPath: m_RootOrder
      value: 1
      objectReference: {fileID: 0}
    - target: {fileID: 4000013992759630, guid: 1214f7eeae79bd84f86047c54e8865dc, type: 3}
      propertyPath: m_LocalPosition.x
      value: -12.5
      objectReference: {fileID: 0}
    - target: {fileID: 4000013992759630, guid: 1214f7eeae79bd84f86047c54e8865dc, type: 3}
      propertyPath: m_LocalPosition.y
      value: -0
      objectReference: {fileID: 0}
    - target: {fileID: 4000013992759630, guid: 1214f7eeae79bd84f86047c54e8865dc, type: 3}
      propertyPath: m_LocalPosition.z
      value: -12.5
      objectReference: {fileID: 0}
    - target: {fileID: 4000013992759630, guid: 1214f7eeae79bd84f86047c54e8865dc, type: 3}
      propertyPath: m_LocalRotation.w
      value: 1
      objectReference: {fileID: 0}
    - target: {fileID: 4000013992759630, guid: 1214f7eeae79bd84f86047c54e8865dc, type: 3}
      propertyPath: m_LocalRotation.x
      value: -0
      objectReference: {fileID: 0}
    - target: {fileID: 4000013992759630, guid: 1214f7eeae79bd84f86047c54e8865dc, type: 3}
      propertyPath: m_LocalRotation.y
      value: -0
      objectReference: {fileID: 0}
    - target: {fileID: 4000013992759630, guid: 1214f7eeae79bd84f86047c54e8865dc, type: 3}
      propertyPath: m_LocalRotation.z
      value: -0
      objectReference: {fileID: 0}
    m_RemovedComponents: []
    m_RemovedGameObjects: []
    m_AddedGameObjects: []
    m_AddedComponents: []
  m_SourcePrefab: {fileID: 100100000, guid: 1214f7eeae79bd84f86047c54e8865dc, type: 3}
--- !u!4 &1173633528 stripped
Transform:
  m_CorrespondingSourceObject: {fileID: 4000013992759630, guid: 1214f7eeae79bd84f86047c54e8865dc, type: 3}
  m_PrefabInstance: {fileID: 1173633527}
  m_PrefabAsset: {fileID: 0}
--- !u!1001 &1209825519
PrefabInstance:
  m_ObjectHideFlags: 0
  serializedVersion: 2
  m_Modification:
    serializedVersion: 3
    m_TransformParent: {fileID: 934999573}
    m_Modifications:
    - target: {fileID: 4000010225447160, guid: 6475154fa45052643bd8ace7bc4c966b, type: 3}
      propertyPath: m_RootOrder
      value: 2
      objectReference: {fileID: 0}
    - target: {fileID: 4000010225447160, guid: 6475154fa45052643bd8ace7bc4c966b, type: 3}
      propertyPath: m_LocalPosition.x
      value: -2.65
      objectReference: {fileID: 0}
    - target: {fileID: 4000010225447160, guid: 6475154fa45052643bd8ace7bc4c966b, type: 3}
      propertyPath: m_LocalPosition.y
      value: 0
      objectReference: {fileID: 0}
    - target: {fileID: 4000010225447160, guid: 6475154fa45052643bd8ace7bc4c966b, type: 3}
      propertyPath: m_LocalPosition.z
      value: 0
      objectReference: {fileID: 0}
    - target: {fileID: 4000010225447160, guid: 6475154fa45052643bd8ace7bc4c966b, type: 3}
      propertyPath: m_LocalRotation.w
      value: 1
      objectReference: {fileID: 0}
    - target: {fileID: 4000010225447160, guid: 6475154fa45052643bd8ace7bc4c966b, type: 3}
      propertyPath: m_LocalRotation.x
      value: 0.0000018099951
      objectReference: {fileID: 0}
    - target: {fileID: 4000010225447160, guid: 6475154fa45052643bd8ace7bc4c966b, type: 3}
      propertyPath: m_LocalRotation.y
      value: 0
      objectReference: {fileID: 0}
    - target: {fileID: 4000010225447160, guid: 6475154fa45052643bd8ace7bc4c966b, type: 3}
      propertyPath: m_LocalRotation.z
      value: -0
      objectReference: {fileID: 0}
    m_RemovedComponents: []
    m_RemovedGameObjects: []
    m_AddedGameObjects: []
    m_AddedComponents: []
  m_SourcePrefab: {fileID: 100100000, guid: 6475154fa45052643bd8ace7bc4c966b, type: 3}
--- !u!4 &1209825520 stripped
Transform:
  m_CorrespondingSourceObject: {fileID: 4000010225447160, guid: 6475154fa45052643bd8ace7bc4c966b, type: 3}
  m_PrefabInstance: {fileID: 1209825519}
  m_PrefabAsset: {fileID: 0}
--- !u!1 &1375443593
GameObject:
  m_ObjectHideFlags: 0
  m_CorrespondingSourceObject: {fileID: 0}
  m_PrefabInstance: {fileID: 0}
  m_PrefabAsset: {fileID: 0}
  serializedVersion: 6
  m_Component:
  - component: {fileID: 1375443594}
  m_Layer: 0
  m_Name: Road Work
  m_TagString: Untagged
  m_Icon: {fileID: 0}
  m_NavMeshLayer: 0
  m_StaticEditorFlags: 0
  m_IsActive: 1
--- !u!4 &1375443594
Transform:
  m_ObjectHideFlags: 0
  m_CorrespondingSourceObject: {fileID: 0}
  m_PrefabInstance: {fileID: 0}
  m_PrefabAsset: {fileID: 0}
  m_GameObject: {fileID: 1375443593}
  m_LocalRotation: {x: -0.0000018099951, y: 0, z: -0, w: 1}
  m_LocalPosition: {x: -6, y: -0, z: -20.5}
  m_LocalScale: {x: 1, y: 1, z: 1}
  m_ConstrainProportionsScale: 0
  m_Children:
  - {fileID: 549261012}
  - {fileID: 1808877131}
  - {fileID: 1528507554}
  m_Father: {fileID: 1489646738}
  m_RootOrder: 3
  m_LocalEulerAnglesHint: {x: 0, y: 0, z: 0}
--- !u!1 &1393019500
GameObject:
  m_ObjectHideFlags: 0
  m_CorrespondingSourceObject: {fileID: 0}
  m_PrefabInstance: {fileID: 0}
  m_PrefabAsset: {fileID: 0}
  serializedVersion: 6
  m_Component:
  - component: {fileID: 1393019501}
  m_Layer: 0
  m_Name: Traffic Lights and Street Light
  m_TagString: Untagged
  m_Icon: {fileID: 0}
  m_NavMeshLayer: 0
  m_StaticEditorFlags: 0
  m_IsActive: 1
--- !u!4 &1393019501
Transform:
  m_ObjectHideFlags: 0
  m_CorrespondingSourceObject: {fileID: 0}
  m_PrefabInstance: {fileID: 0}
  m_PrefabAsset: {fileID: 0}
  m_GameObject: {fileID: 1393019500}
  m_LocalRotation: {x: -0.0000018099951, y: 0, z: -0, w: 1}
  m_LocalPosition: {x: -6.5, y: -0.000027149927, z: -7.5}
  m_LocalScale: {x: 1, y: 1, z: 1}
  m_ConstrainProportionsScale: 0
  m_Children:
  - {fileID: 1941967154}
  - {fileID: 1962404354}
  - {fileID: 551682836}
  m_Father: {fileID: 1489646738}
  m_RootOrder: 6
  m_LocalEulerAnglesHint: {x: 0, y: 0, z: 0}
--- !u!1001 &1399682159
PrefabInstance:
  m_ObjectHideFlags: 0
  serializedVersion: 2
  m_Modification:
    serializedVersion: 3
    m_TransformParent: {fileID: 1510059306}
    m_Modifications:
    - target: {fileID: 4000012165035240, guid: 2ceaa4a4299e5ef4e8f34e1ed22f9d21, type: 3}
      propertyPath: m_RootOrder
      value: 4
      objectReference: {fileID: 0}
    - target: {fileID: 4000012165035240, guid: 2ceaa4a4299e5ef4e8f34e1ed22f9d21, type: 3}
      propertyPath: m_LocalPosition.x
      value: 2
      objectReference: {fileID: 0}
    - target: {fileID: 4000012165035240, guid: 2ceaa4a4299e5ef4e8f34e1ed22f9d21, type: 3}
      propertyPath: m_LocalPosition.y
      value: 0
      objectReference: {fileID: 0}
    - target: {fileID: 4000012165035240, guid: 2ceaa4a4299e5ef4e8f34e1ed22f9d21, type: 3}
      propertyPath: m_LocalPosition.z
      value: 0
      objectReference: {fileID: 0}
    - target: {fileID: 4000012165035240, guid: 2ceaa4a4299e5ef4e8f34e1ed22f9d21, type: 3}
      propertyPath: m_LocalRotation.w
      value: 1
      objectReference: {fileID: 0}
    - target: {fileID: 4000012165035240, guid: 2ceaa4a4299e5ef4e8f34e1ed22f9d21, type: 3}
      propertyPath: m_LocalRotation.x
      value: 0.0000018099951
      objectReference: {fileID: 0}
    - target: {fileID: 4000012165035240, guid: 2ceaa4a4299e5ef4e8f34e1ed22f9d21, type: 3}
      propertyPath: m_LocalRotation.y
      value: 0
      objectReference: {fileID: 0}
    - target: {fileID: 4000012165035240, guid: 2ceaa4a4299e5ef4e8f34e1ed22f9d21, type: 3}
      propertyPath: m_LocalRotation.z
      value: -0
      objectReference: {fileID: 0}
    m_RemovedComponents: []
    m_RemovedGameObjects: []
    m_AddedGameObjects: []
    m_AddedComponents: []
  m_SourcePrefab: {fileID: 100100000, guid: 2ceaa4a4299e5ef4e8f34e1ed22f9d21, type: 3}
--- !u!4 &1399682160 stripped
Transform:
  m_CorrespondingSourceObject: {fileID: 4000012165035240, guid: 2ceaa4a4299e5ef4e8f34e1ed22f9d21, type: 3}
  m_PrefabInstance: {fileID: 1399682159}
  m_PrefabAsset: {fileID: 0}
--- !u!1001 &1438678146
PrefabInstance:
  m_ObjectHideFlags: 0
  serializedVersion: 2
  m_Modification:
    serializedVersion: 3
    m_TransformParent: {fileID: 1510059306}
    m_Modifications:
    - target: {fileID: 4000012641713376, guid: b5b2f37f4e2eadb4fb8b45a0040e42fd, type: 3}
      propertyPath: m_RootOrder
      value: 3
      objectReference: {fileID: 0}
    - target: {fileID: 4000012641713376, guid: b5b2f37f4e2eadb4fb8b45a0040e42fd, type: 3}
      propertyPath: m_LocalPosition.x
      value: 4
      objectReference: {fileID: 0}
    - target: {fileID: 4000012641713376, guid: b5b2f37f4e2eadb4fb8b45a0040e42fd, type: 3}
      propertyPath: m_LocalPosition.y
      value: 0
      objectReference: {fileID: 0}
    - target: {fileID: 4000012641713376, guid: b5b2f37f4e2eadb4fb8b45a0040e42fd, type: 3}
      propertyPath: m_LocalPosition.z
      value: 0
      objectReference: {fileID: 0}
    - target: {fileID: 4000012641713376, guid: b5b2f37f4e2eadb4fb8b45a0040e42fd, type: 3}
      propertyPath: m_LocalRotation.w
      value: 1
      objectReference: {fileID: 0}
    - target: {fileID: 4000012641713376, guid: b5b2f37f4e2eadb4fb8b45a0040e42fd, type: 3}
      propertyPath: m_LocalRotation.x
      value: 0.0000018099951
      objectReference: {fileID: 0}
    - target: {fileID: 4000012641713376, guid: b5b2f37f4e2eadb4fb8b45a0040e42fd, type: 3}
      propertyPath: m_LocalRotation.y
      value: 0
      objectReference: {fileID: 0}
    - target: {fileID: 4000012641713376, guid: b5b2f37f4e2eadb4fb8b45a0040e42fd, type: 3}
      propertyPath: m_LocalRotation.z
      value: -0
      objectReference: {fileID: 0}
    m_RemovedComponents: []
    m_RemovedGameObjects: []
    m_AddedGameObjects: []
    m_AddedComponents: []
  m_SourcePrefab: {fileID: 100100000, guid: b5b2f37f4e2eadb4fb8b45a0040e42fd, type: 3}
--- !u!4 &1438678147 stripped
Transform:
  m_CorrespondingSourceObject: {fileID: 4000012641713376, guid: b5b2f37f4e2eadb4fb8b45a0040e42fd, type: 3}
  m_PrefabInstance: {fileID: 1438678146}
  m_PrefabAsset: {fileID: 0}
--- !u!1 &1489646737
GameObject:
  m_ObjectHideFlags: 0
  m_CorrespondingSourceObject: {fileID: 0}
  m_PrefabInstance: {fileID: 0}
  m_PrefabAsset: {fileID: 0}
  serializedVersion: 6
  m_Component:
  - component: {fileID: 1489646738}
  m_Layer: 0
  m_Name: Enviroment
  m_TagString: Untagged
  m_Icon: {fileID: 0}
  m_NavMeshLayer: 0
  m_StaticEditorFlags: 0
  m_IsActive: 1
--- !u!4 &1489646738
Transform:
  m_ObjectHideFlags: 0
  m_CorrespondingSourceObject: {fileID: 0}
  m_PrefabInstance: {fileID: 0}
  m_PrefabAsset: {fileID: 0}
  m_GameObject: {fileID: 1489646737}
  m_LocalRotation: {x: 0.0000018099951, y: -0, z: -0, w: 1}
  m_LocalPosition: {x: 0, y: 0, z: 0}
  m_LocalScale: {x: 1, y: 1, z: 1}
  m_ConstrainProportionsScale: 0
  m_Children:
  - {fileID: 1151799157}
  - {fileID: 1510059306}
  - {fileID: 934999573}
  - {fileID: 1375443594}
  - {fileID: 75371332}
  - {fileID: 57017250}
  - {fileID: 1393019501}
  m_Father: {fileID: 0}
  m_RootOrder: 3
  m_LocalEulerAnglesHint: {x: 0, y: 0, z: 0}
--- !u!1 &1510059305
GameObject:
  m_ObjectHideFlags: 0
  m_CorrespondingSourceObject: {fileID: 0}
  m_PrefabInstance: {fileID: 0}
  m_PrefabAsset: {fileID: 0}
  serializedVersion: 6
  m_Component:
  - component: {fileID: 1510059306}
  m_Layer: 0
  m_Name: Trees and Bushes
  m_TagString: Untagged
  m_Icon: {fileID: 0}
  m_NavMeshLayer: 0
  m_StaticEditorFlags: 0
  m_IsActive: 1
--- !u!4 &1510059306
Transform:
  m_ObjectHideFlags: 0
  m_CorrespondingSourceObject: {fileID: 0}
  m_PrefabInstance: {fileID: 0}
  m_PrefabAsset: {fileID: 0}
  m_GameObject: {fileID: 1510059305}
  m_LocalRotation: {x: -0.0000018099951, y: 0, z: -0, w: 1}
  m_LocalPosition: {x: 0, y: -0, z: -22}
  m_LocalScale: {x: 1, y: 1, z: 1}
  m_ConstrainProportionsScale: 0
  m_Children:
  - {fileID: 217310298}
  - {fileID: 881143979}
  - {fileID: 531800773}
  - {fileID: 1438678147}
  - {fileID: 1399682160}
  - {fileID: 783328662}
  - {fileID: 702311555}
  m_Father: {fileID: 1489646738}
  m_RootOrder: 1
  m_LocalEulerAnglesHint: {x: 0, y: 0, z: 0}
--- !u!1001 &1528507553
PrefabInstance:
  m_ObjectHideFlags: 0
  serializedVersion: 2
  m_Modification:
    serializedVersion: 3
    m_TransformParent: {fileID: 1375443594}
    m_Modifications:
    - target: {fileID: 4000014034115594, guid: f83fd3683df509f48ad9b29d4052bffa, type: 3}
      propertyPath: m_RootOrder
      value: 2
      objectReference: {fileID: 0}
    - target: {fileID: 4000014034115594, guid: f83fd3683df509f48ad9b29d4052bffa, type: 3}
      propertyPath: m_LocalPosition.x
      value: 1
      objectReference: {fileID: 0}
    - target: {fileID: 4000014034115594, guid: f83fd3683df509f48ad9b29d4052bffa, type: 3}
      propertyPath: m_LocalPosition.y
      value: 0
      objectReference: {fileID: 0}
    - target: {fileID: 4000014034115594, guid: f83fd3683df509f48ad9b29d4052bffa, type: 3}
      propertyPath: m_LocalPosition.z
      value: 0
      objectReference: {fileID: 0}
    - target: {fileID: 4000014034115594, guid: f83fd3683df509f48ad9b29d4052bffa, type: 3}
      propertyPath: m_LocalRotation.w
      value: 1
      objectReference: {fileID: 0}
    - target: {fileID: 4000014034115594, guid: f83fd3683df509f48ad9b29d4052bffa, type: 3}
      propertyPath: m_LocalRotation.x
      value: 0.0000018099951
      objectReference: {fileID: 0}
    - target: {fileID: 4000014034115594, guid: f83fd3683df509f48ad9b29d4052bffa, type: 3}
      propertyPath: m_LocalRotation.y
      value: 0
      objectReference: {fileID: 0}
    - target: {fileID: 4000014034115594, guid: f83fd3683df509f48ad9b29d4052bffa, type: 3}
      propertyPath: m_LocalRotation.z
      value: -0
      objectReference: {fileID: 0}
    m_RemovedComponents: []
    m_RemovedGameObjects: []
    m_AddedGameObjects: []
    m_AddedComponents: []
  m_SourcePrefab: {fileID: 100100000, guid: f83fd3683df509f48ad9b29d4052bffa, type: 3}
--- !u!4 &1528507554 stripped
Transform:
  m_CorrespondingSourceObject: {fileID: 4000014034115594, guid: f83fd3683df509f48ad9b29d4052bffa, type: 3}
  m_PrefabInstance: {fileID: 1528507553}
  m_PrefabAsset: {fileID: 0}
--- !u!1001 &1618672792
PrefabInstance:
  m_ObjectHideFlags: 0
  serializedVersion: 2
  m_Modification:
    serializedVersion: 3
    m_TransformParent: {fileID: 934999573}
    m_Modifications:
    - target: {fileID: 4000014088678430, guid: ad9ec085fa175ff489f894a8402133a7, type: 3}
      propertyPath: m_RootOrder
      value: 3
      objectReference: {fileID: 0}
    - target: {fileID: 4000014088678430, guid: ad9ec085fa175ff489f894a8402133a7, type: 3}
      propertyPath: m_LocalPosition.x
      value: 0.5
      objectReference: {fileID: 0}
    - target: {fileID: 4000014088678430, guid: ad9ec085fa175ff489f894a8402133a7, type: 3}
      propertyPath: m_LocalPosition.y
      value: 0
      objectReference: {fileID: 0}
    - target: {fileID: 4000014088678430, guid: ad9ec085fa175ff489f894a8402133a7, type: 3}
      propertyPath: m_LocalPosition.z
      value: 0
      objectReference: {fileID: 0}
    - target: {fileID: 4000014088678430, guid: ad9ec085fa175ff489f894a8402133a7, type: 3}
      propertyPath: m_LocalRotation.w
      value: 1
      objectReference: {fileID: 0}
    - target: {fileID: 4000014088678430, guid: ad9ec085fa175ff489f894a8402133a7, type: 3}
      propertyPath: m_LocalRotation.x
      value: 0.0000018099951
      objectReference: {fileID: 0}
    - target: {fileID: 4000014088678430, guid: ad9ec085fa175ff489f894a8402133a7, type: 3}
      propertyPath: m_LocalRotation.y
      value: 0
      objectReference: {fileID: 0}
    - target: {fileID: 4000014088678430, guid: ad9ec085fa175ff489f894a8402133a7, type: 3}
      propertyPath: m_LocalRotation.z
      value: -0
      objectReference: {fileID: 0}
    m_RemovedComponents: []
    m_RemovedGameObjects: []
    m_AddedGameObjects: []
    m_AddedComponents: []
  m_SourcePrefab: {fileID: 100100000, guid: ad9ec085fa175ff489f894a8402133a7, type: 3}
--- !u!4 &1618672793 stripped
Transform:
  m_CorrespondingSourceObject: {fileID: 4000014088678430, guid: ad9ec085fa175ff489f894a8402133a7, type: 3}
  m_PrefabInstance: {fileID: 1618672792}
  m_PrefabAsset: {fileID: 0}
--- !u!1001 &1808877130
PrefabInstance:
  m_ObjectHideFlags: 0
  serializedVersion: 2
  m_Modification:
    serializedVersion: 3
    m_TransformParent: {fileID: 1375443594}
    m_Modifications:
    - target: {fileID: 4000013756202744, guid: 5671f18356a08404d90bb24c8233ac4f, type: 3}
      propertyPath: m_RootOrder
      value: 1
      objectReference: {fileID: 0}
    - target: {fileID: 4000013756202744, guid: 5671f18356a08404d90bb24c8233ac4f, type: 3}
      propertyPath: m_LocalPosition.x
      value: -0
      objectReference: {fileID: 0}
    - target: {fileID: 4000013756202744, guid: 5671f18356a08404d90bb24c8233ac4f, type: 3}
      propertyPath: m_LocalPosition.y
      value: 0
      objectReference: {fileID: 0}
    - target: {fileID: 4000013756202744, guid: 5671f18356a08404d90bb24c8233ac4f, type: 3}
      propertyPath: m_LocalPosition.z
      value: 0
      objectReference: {fileID: 0}
    - target: {fileID: 4000013756202744, guid: 5671f18356a08404d90bb24c8233ac4f, type: 3}
      propertyPath: m_LocalRotation.w
      value: 1
      objectReference: {fileID: 0}
    - target: {fileID: 4000013756202744, guid: 5671f18356a08404d90bb24c8233ac4f, type: 3}
      propertyPath: m_LocalRotation.x
      value: 0.0000018099951
      objectReference: {fileID: 0}
    - target: {fileID: 4000013756202744, guid: 5671f18356a08404d90bb24c8233ac4f, type: 3}
      propertyPath: m_LocalRotation.y
      value: 0
      objectReference: {fileID: 0}
    - target: {fileID: 4000013756202744, guid: 5671f18356a08404d90bb24c8233ac4f, type: 3}
      propertyPath: m_LocalRotation.z
      value: -0
      objectReference: {fileID: 0}
    m_RemovedComponents: []
    m_RemovedGameObjects: []
    m_AddedGameObjects: []
    m_AddedComponents: []
  m_SourcePrefab: {fileID: 100100000, guid: 5671f18356a08404d90bb24c8233ac4f, type: 3}
--- !u!4 &1808877131 stripped
Transform:
  m_CorrespondingSourceObject: {fileID: 4000013756202744, guid: 5671f18356a08404d90bb24c8233ac4f, type: 3}
  m_PrefabInstance: {fileID: 1808877130}
  m_PrefabAsset: {fileID: 0}
--- !u!1001 &1875019325
PrefabInstance:
  m_ObjectHideFlags: 0
  serializedVersion: 2
  m_Modification:
    serializedVersion: 3
    m_TransformParent: {fileID: 1151799157}
    m_Modifications:
    - target: {fileID: 4000013700029056, guid: bc1e1e02c7914ad45ae5c197dc697ef9, type: 3}
      propertyPath: m_RootOrder
      value: 2
      objectReference: {fileID: 0}
    - target: {fileID: 4000013700029056, guid: bc1e1e02c7914ad45ae5c197dc697ef9, type: 3}
      propertyPath: m_LocalPosition.x
      value: 12.5
      objectReference: {fileID: 0}
    - target: {fileID: 4000013700029056, guid: bc1e1e02c7914ad45ae5c197dc697ef9, type: 3}
      propertyPath: m_LocalPosition.y
      value: -0
      objectReference: {fileID: 0}
    - target: {fileID: 4000013700029056, guid: bc1e1e02c7914ad45ae5c197dc697ef9, type: 3}
      propertyPath: m_LocalPosition.z
      value: -12.5
      objectReference: {fileID: 0}
    - target: {fileID: 4000013700029056, guid: bc1e1e02c7914ad45ae5c197dc697ef9, type: 3}
      propertyPath: m_LocalRotation.w
      value: 1
      objectReference: {fileID: 0}
    - target: {fileID: 4000013700029056, guid: bc1e1e02c7914ad45ae5c197dc697ef9, type: 3}
      propertyPath: m_LocalRotation.x
      value: -0
      objectReference: {fileID: 0}
    - target: {fileID: 4000013700029056, guid: bc1e1e02c7914ad45ae5c197dc697ef9, type: 3}
      propertyPath: m_LocalRotation.y
      value: -0
      objectReference: {fileID: 0}
    - target: {fileID: 4000013700029056, guid: bc1e1e02c7914ad45ae5c197dc697ef9, type: 3}
      propertyPath: m_LocalRotation.z
      value: -0
      objectReference: {fileID: 0}
    m_RemovedComponents: []
    m_RemovedGameObjects: []
    m_AddedGameObjects: []
    m_AddedComponents: []
  m_SourcePrefab: {fileID: 100100000, guid: bc1e1e02c7914ad45ae5c197dc697ef9, type: 3}
--- !u!4 &1875019326 stripped
Transform:
  m_CorrespondingSourceObject: {fileID: 4000013700029056, guid: bc1e1e02c7914ad45ae5c197dc697ef9, type: 3}
  m_PrefabInstance: {fileID: 1875019325}
  m_PrefabAsset: {fileID: 0}
--- !u!1001 &1941967153
PrefabInstance:
  m_ObjectHideFlags: 0
  serializedVersion: 2
  m_Modification:
    serializedVersion: 3
    m_TransformParent: {fileID: 1393019501}
    m_Modifications:
    - target: {fileID: 4000013889594438, guid: ded97c442c374184a9daaa057042bccc, type: 3}
      propertyPath: m_RootOrder
      value: 0
      objectReference: {fileID: 0}
    - target: {fileID: 4000013889594438, guid: ded97c442c374184a9daaa057042bccc, type: 3}
      propertyPath: m_LocalPosition.x
      value: 2
      objectReference: {fileID: 0}
    - target: {fileID: 4000013889594438, guid: ded97c442c374184a9daaa057042bccc, type: 3}
      propertyPath: m_LocalPosition.y
      value: 0
      objectReference: {fileID: 0}
    - target: {fileID: 4000013889594438, guid: ded97c442c374184a9daaa057042bccc, type: 3}
      propertyPath: m_LocalPosition.z
      value: 0
      objectReference: {fileID: 0}
    - target: {fileID: 4000013889594438, guid: ded97c442c374184a9daaa057042bccc, type: 3}
      propertyPath: m_LocalRotation.w
      value: 1
      objectReference: {fileID: 0}
    - target: {fileID: 4000013889594438, guid: ded97c442c374184a9daaa057042bccc, type: 3}
      propertyPath: m_LocalRotation.x
      value: 0.0000018099951
      objectReference: {fileID: 0}
    - target: {fileID: 4000013889594438, guid: ded97c442c374184a9daaa057042bccc, type: 3}
      propertyPath: m_LocalRotation.y
      value: 0
      objectReference: {fileID: 0}
    - target: {fileID: 4000013889594438, guid: ded97c442c374184a9daaa057042bccc, type: 3}
      propertyPath: m_LocalRotation.z
      value: -0
      objectReference: {fileID: 0}
    m_RemovedComponents: []
    m_RemovedGameObjects: []
    m_AddedGameObjects: []
    m_AddedComponents: []
  m_SourcePrefab: {fileID: 100100000, guid: ded97c442c374184a9daaa057042bccc, type: 3}
--- !u!4 &1941967154 stripped
Transform:
  m_CorrespondingSourceObject: {fileID: 4000013889594438, guid: ded97c442c374184a9daaa057042bccc, type: 3}
  m_PrefabInstance: {fileID: 1941967153}
  m_PrefabAsset: {fileID: 0}
--- !u!1001 &1962404353
PrefabInstance:
  m_ObjectHideFlags: 0
  serializedVersion: 2
  m_Modification:
    serializedVersion: 3
    m_TransformParent: {fileID: 1393019501}
    m_Modifications:
    - target: {fileID: 4000011828788296, guid: 5be13c2e96fba084cbc7164cc3283a3a, type: 3}
      propertyPath: m_RootOrder
      value: 1
      objectReference: {fileID: 0}
    - target: {fileID: 4000011828788296, guid: 5be13c2e96fba084cbc7164cc3283a3a, type: 3}
      propertyPath: m_LocalPosition.x
      value: 1
      objectReference: {fileID: 0}
    - target: {fileID: 4000011828788296, guid: 5be13c2e96fba084cbc7164cc3283a3a, type: 3}
      propertyPath: m_LocalPosition.y
      value: 0
      objectReference: {fileID: 0}
    - target: {fileID: 4000011828788296, guid: 5be13c2e96fba084cbc7164cc3283a3a, type: 3}
      propertyPath: m_LocalPosition.z
      value: 0
      objectReference: {fileID: 0}
    - target: {fileID: 4000011828788296, guid: 5be13c2e96fba084cbc7164cc3283a3a, type: 3}
      propertyPath: m_LocalRotation.w
      value: 1
      objectReference: {fileID: 0}
    - target: {fileID: 4000011828788296, guid: 5be13c2e96fba084cbc7164cc3283a3a, type: 3}
      propertyPath: m_LocalRotation.x
      value: 0.0000018099951
      objectReference: {fileID: 0}
    - target: {fileID: 4000011828788296, guid: 5be13c2e96fba084cbc7164cc3283a3a, type: 3}
      propertyPath: m_LocalRotation.y
      value: 0
      objectReference: {fileID: 0}
    - target: {fileID: 4000011828788296, guid: 5be13c2e96fba084cbc7164cc3283a3a, type: 3}
      propertyPath: m_LocalRotation.z
      value: -0
      objectReference: {fileID: 0}
    m_RemovedComponents: []
    m_RemovedGameObjects: []
    m_AddedGameObjects: []
    m_AddedComponents: []
  m_SourcePrefab: {fileID: 100100000, guid: 5be13c2e96fba084cbc7164cc3283a3a, type: 3}
--- !u!4 &1962404354 stripped
Transform:
  m_CorrespondingSourceObject: {fileID: 4000011828788296, guid: 5be13c2e96fba084cbc7164cc3283a3a, type: 3}
  m_PrefabInstance: {fileID: 1962404353}
  m_PrefabAsset: {fileID: 0}
--- !u!1001 &1981736315
PrefabInstance:
  m_ObjectHideFlags: 0
  serializedVersion: 2
  m_Modification:
    serializedVersion: 3
    m_TransformParent: {fileID: 1151799157}
    m_Modifications:
    - target: {fileID: 4000013993364058, guid: f96807861d9da70428993ecd9e1ad1b2, type: 3}
      propertyPath: m_RootOrder
      value: 0
      objectReference: {fileID: 0}
    - target: {fileID: 4000013993364058, guid: f96807861d9da70428993ecd9e1ad1b2, type: 3}
      propertyPath: m_LocalPosition.x
      value: 0
      objectReference: {fileID: 0}
    - target: {fileID: 4000013993364058, guid: f96807861d9da70428993ecd9e1ad1b2, type: 3}
      propertyPath: m_LocalPosition.y
      value: -0
      objectReference: {fileID: 0}
    - target: {fileID: 4000013993364058, guid: f96807861d9da70428993ecd9e1ad1b2, type: 3}
      propertyPath: m_LocalPosition.z
      value: -12.5
      objectReference: {fileID: 0}
    - target: {fileID: 4000013993364058, guid: f96807861d9da70428993ecd9e1ad1b2, type: 3}
      propertyPath: m_LocalRotation.w
      value: 1
      objectReference: {fileID: 0}
    - target: {fileID: 4000013993364058, guid: f96807861d9da70428993ecd9e1ad1b2, type: 3}
      propertyPath: m_LocalRotation.x
      value: -0
      objectReference: {fileID: 0}
    - target: {fileID: 4000013993364058, guid: f96807861d9da70428993ecd9e1ad1b2, type: 3}
      propertyPath: m_LocalRotation.y
      value: -0
      objectReference: {fileID: 0}
    - target: {fileID: 4000013993364058, guid: f96807861d9da70428993ecd9e1ad1b2, type: 3}
      propertyPath: m_LocalRotation.z
      value: -0
      objectReference: {fileID: 0}
    m_RemovedComponents: []
    m_RemovedGameObjects: []
    m_AddedGameObjects: []
    m_AddedComponents: []
  m_SourcePrefab: {fileID: 100100000, guid: f96807861d9da70428993ecd9e1ad1b2, type: 3}
--- !u!4 &1981736316 stripped
Transform:
  m_CorrespondingSourceObject: {fileID: 4000013993364058, guid: f96807861d9da70428993ecd9e1ad1b2, type: 3}
  m_PrefabInstance: {fileID: 1981736315}
  m_PrefabAsset: {fileID: 0}
