%YAML 1.1
%TAG !u! tag:unity3d.com,2011:
--- !u!29 &1
OcclusionCullingSettings:
  m_ObjectHideFlags: 0
  serializedVersion: 2
  m_OcclusionBakeSettings:
    smallestOccluder: 5
    smallestHole: 0.25
    backfaceThreshold: 100
  m_SceneGUID: 00000000000000000000000000000000
  m_OcclusionCullingData: {fileID: 0}
--- !u!104 &2
RenderSettings:
  m_ObjectHideFlags: 0
  serializedVersion: 9
  m_Fog: 0
  m_FogColor: {r: 0.5, g: 0.5, b: 0.5, a: 1}
  m_FogMode: 3
  m_FogDensity: 0.01
  m_LinearFogStart: 0
  m_LinearFogEnd: 300
  m_AmbientSkyColor: {r: 0.212, g: 0.227, b: 0.259, a: 1}
  m_AmbientEquatorColor: {r: 0.114, g: 0.125, b: 0.133, a: 1}
  m_AmbientGroundColor: {r: 0.047, g: 0.043, b: 0.035, a: 1}
  m_AmbientIntensity: 1
  m_AmbientMode: 0
  m_SubtractiveShadowColor: {r: 0.42, g: 0.478, b: 0.627, a: 1}
  m_SkyboxMaterial: {fileID: 10304, guid: 0000000000000000f000000000000000, type: 0}
  m_HaloStrength: 0.5
  m_FlareStrength: 1
  m_FlareFadeSpeed: 3
  m_HaloTexture: {fileID: 0}
  m_SpotCookie: {fileID: 10001, guid: 0000000000000000e000000000000000, type: 0}
  m_DefaultReflectionMode: 0
  m_DefaultReflectionResolution: 128
  m_ReflectionBounces: 1
  m_ReflectionIntensity: 1
  m_CustomReflection: {fileID: 0}
  m_Sun: {fileID: 0}
  m_IndirectSpecularColor: {r: 0, g: 0, b: 0, a: 1}
  m_UseRadianceAmbientProbe: 0
--- !u!157 &3
LightmapSettings:
  m_ObjectHideFlags: 0
  serializedVersion: 12
  m_GIWorkflowMode: 0
  m_GISettings:
    serializedVersion: 2
    m_BounceScale: 1
    m_IndirectOutputScale: 1
    m_AlbedoBoost: 1
    m_EnvironmentLightingMode: 0
    m_EnableBakedLightmaps: 1
    m_EnableRealtimeLightmaps: 1
  m_LightmapEditorSettings:
    serializedVersion: 12
    m_Resolution: 2
    m_BakeResolution: 40
    m_AtlasSize: 1024
    m_AO: 0
    m_AOMaxDistance: 1
    m_CompAOExponent: 1
    m_CompAOExponentDirect: 0
    m_ExtractAmbientOcclusion: 0
    m_Padding: 2
    m_LightmapParameters: {fileID: 0}
    m_LightmapsBakeMode: 1
    m_TextureCompression: 1
    m_FinalGather: 0
    m_FinalGatherFiltering: 1
    m_FinalGatherRayCount: 256
    m_ReflectionCompression: 2
    m_MixedBakeMode: 1
    m_BakeBackend: 0
    m_PVRSampling: 1
    m_PVRDirectSampleCount: 32
    m_PVRSampleCount: 512
    m_PVRBounces: 2
    m_PVREnvironmentSampleCount: 512
    m_PVREnvironmentReferencePointCount: 2048
    m_PVRFilteringMode: 0
    m_PVRDenoiserTypeDirect: 0
    m_PVRDenoiserTypeIndirect: 0
    m_PVRDenoiserTypeAO: 0
    m_PVRFilterTypeDirect: 0
    m_PVRFilterTypeIndirect: 0
    m_PVRFilterTypeAO: 0
    m_PVREnvironmentMIS: 0
    m_PVRCulling: 1
    m_PVRFilteringGaussRadiusDirect: 1
    m_PVRFilteringGaussRadiusIndirect: 5
    m_PVRFilteringGaussRadiusAO: 2
    m_PVRFilteringAtrousPositionSigmaDirect: 0.5
    m_PVRFilteringAtrousPositionSigmaIndirect: 2
    m_PVRFilteringAtrousPositionSigmaAO: 1
    m_ExportTrainingData: 0
    m_TrainingDataDestination: TrainingData
    m_LightProbeSampleCountMultiplier: 4
  m_LightingDataAsset: {fileID: 0}
  m_LightingSettings: {fileID: 4890085278179872738, guid: 376cf47bbced9984fa3c657aa4b0ec61, type: 2}
--- !u!196 &4
NavMeshSettings:
  serializedVersion: 2
  m_ObjectHideFlags: 0
  m_BuildSettings:
    serializedVersion: 3
    agentTypeID: 0
    agentRadius: 0.5
    agentHeight: 2
    agentSlope: 45
    agentClimb: 0.4
    ledgeDropHeight: 0
    maxJumpAcrossDistance: 0
    minRegionArea: 2
    manualCellSize: 0
    cellSize: 0.16666667
    manualTileSize: 0
    tileSize: 256
    buildHeightMesh: 0
    maxJobWorkers: 0
    preserveTilesOutsideBounds: 0
    debug:
      m_Flags: 0
  m_NavMeshData: {fileID: 0}
--- !u!1001 &149964663
PrefabInstance:
  m_ObjectHideFlags: 0
  serializedVersion: 2
  m_Modification:
    serializedVersion: 3
    m_TransformParent: {fileID: 1164144093}
    m_Modifications:
    - target: {fileID: 4000010536580966, guid: a100d0d5935b63d4e93c259dd451bd85, type: 3}
      propertyPath: m_RootOrder
      value: 3
      objectReference: {fileID: 0}
    - target: {fileID: 4000010536580966, guid: a100d0d5935b63d4e93c259dd451bd85, type: 3}
      propertyPath: m_LocalPosition.x
      value: -1.5
      objectReference: {fileID: 0}
    - target: {fileID: 4000010536580966, guid: a100d0d5935b63d4e93c259dd451bd85, type: 3}
      propertyPath: m_LocalPosition.y
      value: 0
      objectReference: {fileID: 0}
    - target: {fileID: 4000010536580966, guid: a100d0d5935b63d4e93c259dd451bd85, type: 3}
      propertyPath: m_LocalPosition.z
      value: 0
      objectReference: {fileID: 0}
    - target: {fileID: 4000010536580966, guid: a100d0d5935b63d4e93c259dd451bd85, type: 3}
      propertyPath: m_LocalRotation.w
      value: 1
      objectReference: {fileID: 0}
    - target: {fileID: 4000010536580966, guid: a100d0d5935b63d4e93c259dd451bd85, type: 3}
      propertyPath: m_LocalRotation.x
      value: -0
      objectReference: {fileID: 0}
    - target: {fileID: 4000010536580966, guid: a100d0d5935b63d4e93c259dd451bd85, type: 3}
      propertyPath: m_LocalRotation.y
      value: -0
      objectReference: {fileID: 0}
    - target: {fileID: 4000010536580966, guid: a100d0d5935b63d4e93c259dd451bd85, type: 3}
      propertyPath: m_LocalRotation.z
      value: -0
      objectReference: {fileID: 0}
    m_RemovedComponents: []
    m_RemovedGameObjects: []
    m_AddedGameObjects: []
    m_AddedComponents: []
  m_SourcePrefab: {fileID: 100100000, guid: a100d0d5935b63d4e93c259dd451bd85, type: 3}
--- !u!4 &149964664 stripped
Transform:
  m_CorrespondingSourceObject: {fileID: 4000010536580966, guid: a100d0d5935b63d4e93c259dd451bd85, type: 3}
  m_PrefabInstance: {fileID: 149964663}
  m_PrefabAsset: {fileID: 0}
--- !u!1001 &219825311
PrefabInstance:
  m_ObjectHideFlags: 0
  serializedVersion: 2
  m_Modification:
    serializedVersion: 3
    m_TransformParent: {fileID: 1164144093}
    m_Modifications:
    - target: {fileID: 4000011959728640, guid: bfd506b9a6a49014592edac06b278079, type: 3}
      propertyPath: m_RootOrder
      value: 7
      objectReference: {fileID: 0}
    - target: {fileID: 4000011959728640, guid: bfd506b9a6a49014592edac06b278079, type: 3}
      propertyPath: m_LocalPosition.x
      value: -1.5
      objectReference: {fileID: 0}
    - target: {fileID: 4000011959728640, guid: bfd506b9a6a49014592edac06b278079, type: 3}
      propertyPath: m_LocalPosition.y
      value: 0
      objectReference: {fileID: 0}
    - target: {fileID: 4000011959728640, guid: bfd506b9a6a49014592edac06b278079, type: 3}
      propertyPath: m_LocalPosition.z
      value: -1
      objectReference: {fileID: 0}
    - target: {fileID: 4000011959728640, guid: bfd506b9a6a49014592edac06b278079, type: 3}
      propertyPath: m_LocalRotation.w
      value: 1
      objectReference: {fileID: 0}
    - target: {fileID: 4000011959728640, guid: bfd506b9a6a49014592edac06b278079, type: 3}
      propertyPath: m_LocalRotation.x
      value: -0
      objectReference: {fileID: 0}
    - target: {fileID: 4000011959728640, guid: bfd506b9a6a49014592edac06b278079, type: 3}
      propertyPath: m_LocalRotation.y
      value: -0
      objectReference: {fileID: 0}
    - target: {fileID: 4000011959728640, guid: bfd506b9a6a49014592edac06b278079, type: 3}
      propertyPath: m_LocalRotation.z
      value: -0
      objectReference: {fileID: 0}
    m_RemovedComponents: []
    m_RemovedGameObjects: []
    m_AddedGameObjects: []
    m_AddedComponents: []
  m_SourcePrefab: {fileID: 100100000, guid: bfd506b9a6a49014592edac06b278079, type: 3}
--- !u!4 &219825312 stripped
Transform:
  m_CorrespondingSourceObject: {fileID: 4000011959728640, guid: bfd506b9a6a49014592edac06b278079, type: 3}
  m_PrefabInstance: {fileID: 219825311}
  m_PrefabAsset: {fileID: 0}
--- !u!1001 &220141205
PrefabInstance:
  m_ObjectHideFlags: 0
  serializedVersion: 2
  m_Modification:
    serializedVersion: 3
    m_TransformParent: {fileID: 1398464799}
    m_Modifications:
    - target: {fileID: 1000014016851820, guid: 7136d990e102e7f4c9225a4f1759d384, type: 3}
      propertyPath: m_Name
      value: Pavement Road (4)
      objectReference: {fileID: 0}
    - target: {fileID: 4000012170992174, guid: 7136d990e102e7f4c9225a4f1759d384, type: 3}
      propertyPath: m_RootOrder
      value: 4
      objectReference: {fileID: 0}
    - target: {fileID: 4000012170992174, guid: 7136d990e102e7f4c9225a4f1759d384, type: 3}
      propertyPath: m_LocalPosition.x
      value: 0.75
      objectReference: {fileID: 0}
    - target: {fileID: 4000012170992174, guid: 7136d990e102e7f4c9225a4f1759d384, type: 3}
      propertyPath: m_LocalPosition.y
      value: -0.174
      objectReference: {fileID: 0}
    - target: {fileID: 4000012170992174, guid: 7136d990e102e7f4c9225a4f1759d384, type: 3}
      propertyPath: m_LocalPosition.z
      value: -1
      objectReference: {fileID: 0}
    - target: {fileID: 4000012170992174, guid: 7136d990e102e7f4c9225a4f1759d384, type: 3}
      propertyPath: m_LocalRotation.w
      value: 1
      objectReference: {fileID: 0}
    - target: {fileID: 4000012170992174, guid: 7136d990e102e7f4c9225a4f1759d384, type: 3}
      propertyPath: m_LocalRotation.x
      value: 0.0000018099951
      objectReference: {fileID: 0}
    - target: {fileID: 4000012170992174, guid: 7136d990e102e7f4c9225a4f1759d384, type: 3}
      propertyPath: m_LocalRotation.y
      value: -0
      objectReference: {fileID: 0}
    - target: {fileID: 4000012170992174, guid: 7136d990e102e7f4c9225a4f1759d384, type: 3}
      propertyPath: m_LocalRotation.z
      value: -0
      objectReference: {fileID: 0}
    m_RemovedComponents: []
    m_RemovedGameObjects: []
    m_AddedGameObjects: []
    m_AddedComponents: []
  m_SourcePrefab: {fileID: 100100000, guid: 7136d990e102e7f4c9225a4f1759d384, type: 3}
--- !u!4 &220141206 stripped
Transform:
  m_CorrespondingSourceObject: {fileID: 4000012170992174, guid: 7136d990e102e7f4c9225a4f1759d384, type: 3}
  m_PrefabInstance: {fileID: 220141205}
  m_PrefabAsset: {fileID: 0}
--- !u!1001 &230805341
PrefabInstance:
  m_ObjectHideFlags: 0
  serializedVersion: 2
  m_Modification:
    serializedVersion: 3
    m_TransformParent: {fileID: 1164144093}
    m_Modifications:
    - target: {fileID: 1000011104951312, guid: 90bf1cd8a4604ad4f84ba00d3ad2efe9, type: 3}
      propertyPath: m_Name
      value: Citizen Man White T-Shirt
      objectReference: {fileID: 0}
    - target: {fileID: 1000011104951312, guid: 90bf1cd8a4604ad4f84ba00d3ad2efe9, type: 3}
      propertyPath: m_IsActive
      value: 1
      objectReference: {fileID: 0}
    - target: {fileID: 4000012528377062, guid: 90bf1cd8a4604ad4f84ba00d3ad2efe9, type: 3}
      propertyPath: m_LocalPosition.y
      value: 0.091
      objectReference: {fileID: 0}
    - target: {fileID: 4000013016269556, guid: 90bf1cd8a4604ad4f84ba00d3ad2efe9, type: 3}
      propertyPath: m_RootOrder
      value: 1
      objectReference: {fileID: 0}
    - target: {fileID: 4000013016269556, guid: 90bf1cd8a4604ad4f84ba00d3ad2efe9, type: 3}
      propertyPath: m_LocalPosition.x
      value: 0
      objectReference: {fileID: 0}
    - target: {fileID: 4000013016269556, guid: 90bf1cd8a4604ad4f84ba00d3ad2efe9, type: 3}
      propertyPath: m_LocalPosition.y
      value: 0
      objectReference: {fileID: 0}
    - target: {fileID: 4000013016269556, guid: 90bf1cd8a4604ad4f84ba00d3ad2efe9, type: 3}
      propertyPath: m_LocalPosition.z
      value: 0
      objectReference: {fileID: 0}
    - target: {fileID: 4000013016269556, guid: 90bf1cd8a4604ad4f84ba00d3ad2efe9, type: 3}
      propertyPath: m_LocalRotation.w
      value: 1
      objectReference: {fileID: 0}
    - target: {fileID: 4000013016269556, guid: 90bf1cd8a4604ad4f84ba00d3ad2efe9, type: 3}
      propertyPath: m_LocalRotation.x
      value: -0
      objectReference: {fileID: 0}
    - target: {fileID: 4000013016269556, guid: 90bf1cd8a4604ad4f84ba00d3ad2efe9, type: 3}
      propertyPath: m_LocalRotation.y
      value: -0
      objectReference: {fileID: 0}
    - target: {fileID: 4000013016269556, guid: 90bf1cd8a4604ad4f84ba00d3ad2efe9, type: 3}
      propertyPath: m_LocalRotation.z
      value: -0
      objectReference: {fileID: 0}
    m_RemovedComponents: []
    m_RemovedGameObjects: []
    m_AddedGameObjects: []
    m_AddedComponents: []
  m_SourcePrefab: {fileID: 100100000, guid: 90bf1cd8a4604ad4f84ba00d3ad2efe9, type: 3}
--- !u!4 &230805342 stripped
Transform:
  m_CorrespondingSourceObject: {fileID: 4000013016269556, guid: 90bf1cd8a4604ad4f84ba00d3ad2efe9, type: 3}
  m_PrefabInstance: {fileID: 230805341}
  m_PrefabAsset: {fileID: 0}
--- !u!4 &299156348 stripped
Transform:
  m_CorrespondingSourceObject: {fileID: 4000013421993136, guid: 0f72c257f1495dd4cae1bd77eada49fc, type: 3}
  m_PrefabInstance: {fileID: 1211398668}
  m_PrefabAsset: {fileID: 0}
--- !u!1001 &548429288
PrefabInstance:
  m_ObjectHideFlags: 0
  serializedVersion: 2
  m_Modification:
    serializedVersion: 3
    m_TransformParent: {fileID: 1164144093}
    m_Modifications:
    - target: {fileID: 4000013341555632, guid: f67696064848cb740b98f7b71a277ed3, type: 3}
      propertyPath: m_RootOrder
      value: 2
      objectReference: {fileID: 0}
    - target: {fileID: 4000013341555632, guid: f67696064848cb740b98f7b71a277ed3, type: 3}
      propertyPath: m_LocalPosition.x
      value: -0.75
      objectReference: {fileID: 0}
    - target: {fileID: 4000013341555632, guid: f67696064848cb740b98f7b71a277ed3, type: 3}
      propertyPath: m_LocalPosition.y
      value: 0
      objectReference: {fileID: 0}
    - target: {fileID: 4000013341555632, guid: f67696064848cb740b98f7b71a277ed3, type: 3}
      propertyPath: m_LocalPosition.z
      value: 0
      objectReference: {fileID: 0}
    - target: {fileID: 4000013341555632, guid: f67696064848cb740b98f7b71a277ed3, type: 3}
      propertyPath: m_LocalRotation.w
      value: 1
      objectReference: {fileID: 0}
    - target: {fileID: 4000013341555632, guid: f67696064848cb740b98f7b71a277ed3, type: 3}
      propertyPath: m_LocalRotation.x
      value: -0
      objectReference: {fileID: 0}
    - target: {fileID: 4000013341555632, guid: f67696064848cb740b98f7b71a277ed3, type: 3}
      propertyPath: m_LocalRotation.y
      value: -0
      objectReference: {fileID: 0}
    - target: {fileID: 4000013341555632, guid: f67696064848cb740b98f7b71a277ed3, type: 3}
      propertyPath: m_LocalRotation.z
      value: -0
      objectReference: {fileID: 0}
    m_RemovedComponents: []
    m_RemovedGameObjects: []
    m_AddedGameObjects: []
    m_AddedComponents: []
  m_SourcePrefab: {fileID: 100100000, guid: f67696064848cb740b98f7b71a277ed3, type: 3}
--- !u!4 &548429289 stripped
Transform:
  m_CorrespondingSourceObject: {fileID: 4000013341555632, guid: f67696064848cb740b98f7b71a277ed3, type: 3}
  m_PrefabInstance: {fileID: 548429288}
  m_PrefabAsset: {fileID: 0}
--- !u!1001 &614029222
PrefabInstance:
  m_ObjectHideFlags: 0
  serializedVersion: 2
  m_Modification:
    serializedVersion: 3
    m_TransformParent: {fileID: 1398464799}
    m_Modifications:
    - target: {fileID: 1000014016851820, guid: 7136d990e102e7f4c9225a4f1759d384, type: 3}
      propertyPath: m_Name
      value: Pavement Road (2)
      objectReference: {fileID: 0}
    - target: {fileID: 4000012170992174, guid: 7136d990e102e7f4c9225a4f1759d384, type: 3}
      propertyPath: m_RootOrder
      value: 2
      objectReference: {fileID: 0}
    - target: {fileID: 4000012170992174, guid: 7136d990e102e7f4c9225a4f1759d384, type: 3}
      propertyPath: m_LocalPosition.x
      value: -1.5
      objectReference: {fileID: 0}
    - target: {fileID: 4000012170992174, guid: 7136d990e102e7f4c9225a4f1759d384, type: 3}
      propertyPath: m_LocalPosition.y
      value: -0.174
      objectReference: {fileID: 0}
    - target: {fileID: 4000012170992174, guid: 7136d990e102e7f4c9225a4f1759d384, type: 3}
      propertyPath: m_LocalPosition.z
      value: 0
      objectReference: {fileID: 0}
    - target: {fileID: 4000012170992174, guid: 7136d990e102e7f4c9225a4f1759d384, type: 3}
      propertyPath: m_LocalRotation.w
      value: 1
      objectReference: {fileID: 0}
    - target: {fileID: 4000012170992174, guid: 7136d990e102e7f4c9225a4f1759d384, type: 3}
      propertyPath: m_LocalRotation.x
      value: 0.0000018099951
      objectReference: {fileID: 0}
    - target: {fileID: 4000012170992174, guid: 7136d990e102e7f4c9225a4f1759d384, type: 3}
      propertyPath: m_LocalRotation.y
      value: -0
      objectReference: {fileID: 0}
    - target: {fileID: 4000012170992174, guid: 7136d990e102e7f4c9225a4f1759d384, type: 3}
      propertyPath: m_LocalRotation.z
      value: -0
      objectReference: {fileID: 0}
    m_RemovedComponents: []
    m_RemovedGameObjects: []
    m_AddedGameObjects: []
    m_AddedComponents: []
  m_SourcePrefab: {fileID: 100100000, guid: 7136d990e102e7f4c9225a4f1759d384, type: 3}
--- !u!4 &614029223 stripped
Transform:
  m_CorrespondingSourceObject: {fileID: 4000012170992174, guid: 7136d990e102e7f4c9225a4f1759d384, type: 3}
  m_PrefabInstance: {fileID: 614029222}
  m_PrefabAsset: {fileID: 0}
--- !u!1001 &930345826
PrefabInstance:
  m_ObjectHideFlags: 0
  serializedVersion: 2
  m_Modification:
    serializedVersion: 3
    m_TransformParent: {fileID: 1164144093}
    m_Modifications:
    - target: {fileID: 4000014095995478, guid: 27184e5c0ab37ad489e41e14837b8aa0, type: 3}
      propertyPath: m_RootOrder
      value: 6
      objectReference: {fileID: 0}
    - target: {fileID: 4000014095995478, guid: 27184e5c0ab37ad489e41e14837b8aa0, type: 3}
      propertyPath: m_LocalPosition.x
      value: -0.75
      objectReference: {fileID: 0}
    - target: {fileID: 4000014095995478, guid: 27184e5c0ab37ad489e41e14837b8aa0, type: 3}
      propertyPath: m_LocalPosition.y
      value: 0
      objectReference: {fileID: 0}
    - target: {fileID: 4000014095995478, guid: 27184e5c0ab37ad489e41e14837b8aa0, type: 3}
      propertyPath: m_LocalPosition.z
      value: -1
      objectReference: {fileID: 0}
    - target: {fileID: 4000014095995478, guid: 27184e5c0ab37ad489e41e14837b8aa0, type: 3}
      propertyPath: m_LocalRotation.w
      value: 1
      objectReference: {fileID: 0}
    - target: {fileID: 4000014095995478, guid: 27184e5c0ab37ad489e41e14837b8aa0, type: 3}
      propertyPath: m_LocalRotation.x
      value: -0
      objectReference: {fileID: 0}
    - target: {fileID: 4000014095995478, guid: 27184e5c0ab37ad489e41e14837b8aa0, type: 3}
      propertyPath: m_LocalRotation.y
      value: -0
      objectReference: {fileID: 0}
    - target: {fileID: 4000014095995478, guid: 27184e5c0ab37ad489e41e14837b8aa0, type: 3}
      propertyPath: m_LocalRotation.z
      value: -0
      objectReference: {fileID: 0}
    m_RemovedComponents: []
    m_RemovedGameObjects: []
    m_AddedGameObjects: []
    m_AddedComponents: []
  m_SourcePrefab: {fileID: 100100000, guid: 27184e5c0ab37ad489e41e14837b8aa0, type: 3}
--- !u!4 &930345827 stripped
Transform:
  m_CorrespondingSourceObject: {fileID: 4000014095995478, guid: 27184e5c0ab37ad489e41e14837b8aa0, type: 3}
  m_PrefabInstance: {fileID: 930345826}
  m_PrefabAsset: {fileID: 0}
--- !u!1 &1164144092
GameObject:
  m_ObjectHideFlags: 0
  m_CorrespondingSourceObject: {fileID: 0}
  m_PrefabInstance: {fileID: 0}
  m_PrefabAsset: {fileID: 0}
  serializedVersion: 6
  m_Component:
  - component: {fileID: 1164144093}
  m_Layer: 0
  m_Name: Characters
  m_TagString: Untagged
  m_Icon: {fileID: 0}
  m_NavMeshLayer: 0
  m_StaticEditorFlags: 0
  m_IsActive: 1
--- !u!4 &1164144093
Transform:
  m_ObjectHideFlags: 0
  m_CorrespondingSourceObject: {fileID: 0}
  m_PrefabInstance: {fileID: 0}
  m_PrefabAsset: {fileID: 0}
  m_GameObject: {fileID: 1164144092}
  m_LocalRotation: {x: 0, y: 0, z: 0, w: 1}
  m_LocalPosition: {x: 0, y: 0, z: 0}
  m_LocalScale: {x: 1, y: 1, z: 1}
  m_ConstrainProportionsScale: 0
  m_Children:
  - {fileID: 1416944941}
  - {fileID: 230805342}
  - {fileID: 548429289}
  - {fileID: 149964664}
  - {fileID: 1460785079}
  - {fileID: 1364165226}
  - {fileID: 930345827}
  - {fileID: 219825312}
  - {fileID: 299156348}
  m_Father: {fileID: 0}
  m_RootOrder: 3
  m_LocalEulerAnglesHint: {x: 0, y: 0, z: 0}
--- !u!1001 &1211398668
PrefabInstance:
  m_ObjectHideFlags: 0
  serializedVersion: 2
  m_Modification:
    serializedVersion: 3
    m_TransformParent: {fileID: 1164144093}
    m_Modifications:
    - target: {fileID: 4000013421993136, guid: 0f72c257f1495dd4cae1bd77eada49fc, type: 3}
      propertyPath: m_RootOrder
      value: 8
      objectReference: {fileID: 0}
    - target: {fileID: 4000013421993136, guid: 0f72c257f1495dd4cae1bd77eada49fc, type: 3}
      propertyPath: m_LocalPosition.x
      value: -2.5
      objectReference: {fileID: 0}
    - target: {fileID: 4000013421993136, guid: 0f72c257f1495dd4cae1bd77eada49fc, type: 3}
      propertyPath: m_LocalPosition.y
      value: 0
      objectReference: {fileID: 0}
    - target: {fileID: 4000013421993136, guid: 0f72c257f1495dd4cae1bd77eada49fc, type: 3}
      propertyPath: m_LocalPosition.z
      value: -0.5
      objectReference: {fileID: 0}
    - target: {fileID: 4000013421993136, guid: 0f72c257f1495dd4cae1bd77eada49fc, type: 3}
      propertyPath: m_LocalRotation.w
      value: 1
      objectReference: {fileID: 0}
    - target: {fileID: 4000013421993136, guid: 0f72c257f1495dd4cae1bd77eada49fc, type: 3}
      propertyPath: m_LocalRotation.x
      value: -0
      objectReference: {fileID: 0}
    - target: {fileID: 4000013421993136, guid: 0f72c257f1495dd4cae1bd77eada49fc, type: 3}
      propertyPath: m_LocalRotation.y
      value: -0
      objectReference: {fileID: 0}
    - target: {fileID: 4000013421993136, guid: 0f72c257f1495dd4cae1bd77eada49fc, type: 3}
      propertyPath: m_LocalRotation.z
      value: -0
      objectReference: {fileID: 0}
    - target: {fileID: 95000012677222804, guid: 0f72c257f1495dd4cae1bd77eada49fc, type: 3}
      propertyPath: m_Controller
      value: 
      objectReference: {fileID: 0}
    m_RemovedComponents: []
    m_RemovedGameObjects: []
    m_AddedGameObjects: []
    m_AddedComponents: []
  m_SourcePrefab: {fileID: 100100000, guid: 0f72c257f1495dd4cae1bd77eada49fc, type: 3}
--- !u!1 &1238952523
GameObject:
  m_ObjectHideFlags: 0
  m_CorrespondingSourceObject: {fileID: 0}
  m_PrefabInstance: {fileID: 0}
  m_PrefabAsset: {fileID: 0}
  serializedVersion: 6
  m_Component:
  - component: {fileID: 1238952525}
  - component: {fileID: 1238952524}
  m_Layer: 0
  m_Name: Directional Light
  m_TagString: Untagged
  m_Icon: {fileID: 0}
  m_NavMeshLayer: 0
  m_StaticEditorFlags: 0
  m_IsActive: 1
--- !u!108 &1238952524
Light:
  m_ObjectHideFlags: 0
  m_CorrespondingSourceObject: {fileID: 0}
  m_PrefabInstance: {fileID: 0}
  m_PrefabAsset: {fileID: 0}
  m_GameObject: {fileID: 1238952523}
  m_Enabled: 1
  serializedVersion: 10
  m_Type: 1
  m_Shape: 0
  m_Color: {r: 1, g: 0.95686275, b: 0.8392157, a: 1}
  m_Intensity: 1
  m_Range: 10
  m_SpotAngle: 30
  m_InnerSpotAngle: 21.80208
  m_CookieSize: 10
  m_Shadows:
    m_Type: 1
    m_Resolution: 3
    m_CustomResolution: -1
    m_Strength: 0.328
    m_Bias: 0.18
    m_NormalBias: 0
    m_NearPlane: 0.1
    m_CullingMatrixOverride:
      e00: 1
      e01: 0
      e02: 0
      e03: 0
      e10: 0
      e11: 1
      e12: 0
      e13: 0
      e20: 0
      e21: 0
      e22: 1
      e23: 0
      e30: 0
      e31: 0
      e32: 0
      e33: 1
    m_UseCullingMatrixOverride: 0
  m_Cookie: {fileID: 0}
  m_DrawHalo: 0
  m_Flare: {fileID: 0}
  m_RenderMode: 0
  m_CullingMask:
    serializedVersion: 2
    m_Bits: 4294967295
  m_RenderingLayerMask: 1
  m_Lightmapping: 4
  m_LightShadowCasterMode: 0
  m_AreaSize: {x: 1, y: 1}
  m_BounceIntensity: 1
  m_ColorTemperature: 6570
  m_UseColorTemperature: 0
  m_BoundingSphereOverride: {x: 0, y: 0, z: 0, w: 0}
  m_UseBoundingSphereOverride: 0
  m_UseViewFrustumForShadowCasterCull: 1
  m_ShadowRadius: 0
  m_ShadowAngle: 0
--- !u!4 &1238952525
Transform:
  m_ObjectHideFlags: 0
  m_CorrespondingSourceObject: {fileID: 0}
  m_PrefabInstance: {fileID: 0}
  m_PrefabAsset: {fileID: 0}
  m_GameObject: {fileID: 1238952523}
  m_LocalRotation: {x: 0.41601878, y: -0.72168475, z: 0.18193802, w: 0.52249223}
  m_LocalPosition: {x: 0, y: 1.39, z: 0}
  m_LocalScale: {x: 1, y: 1, z: 1}
  m_ConstrainProportionsScale: 0
  m_Children: []
  m_Father: {fileID: 0}
  m_RootOrder: 1
  m_LocalEulerAnglesHint: {x: 44.210003, y: -122.885, z: -35.134003}
--- !u!1001 &1364165225
PrefabInstance:
  m_ObjectHideFlags: 0
  serializedVersion: 2
  m_Modification:
    serializedVersion: 3
    m_TransformParent: {fileID: 1164144093}
    m_Modifications:
    - target: {fileID: 4000012211444210, guid: 6c71cdadbc342804d9b7defafe15a1f2, type: 3}
      propertyPath: m_RootOrder
      value: 5
      objectReference: {fileID: 0}
    - target: {fileID: 4000012211444210, guid: 6c71cdadbc342804d9b7defafe15a1f2, type: 3}
      propertyPath: m_LocalPosition.x
      value: 0.75
      objectReference: {fileID: 0}
    - target: {fileID: 4000012211444210, guid: 6c71cdadbc342804d9b7defafe15a1f2, type: 3}
      propertyPath: m_LocalPosition.y
      value: 0
      objectReference: {fileID: 0}
    - target: {fileID: 4000012211444210, guid: 6c71cdadbc342804d9b7defafe15a1f2, type: 3}
      propertyPath: m_LocalPosition.z
      value: -1
      objectReference: {fileID: 0}
    - target: {fileID: 4000012211444210, guid: 6c71cdadbc342804d9b7defafe15a1f2, type: 3}
      propertyPath: m_LocalRotation.w
      value: 1
      objectReference: {fileID: 0}
    - target: {fileID: 4000012211444210, guid: 6c71cdadbc342804d9b7defafe15a1f2, type: 3}
      propertyPath: m_LocalRotation.x
      value: -0
      objectReference: {fileID: 0}
    - target: {fileID: 4000012211444210, guid: 6c71cdadbc342804d9b7defafe15a1f2, type: 3}
      propertyPath: m_LocalRotation.y
      value: -0
      objectReference: {fileID: 0}
    - target: {fileID: 4000012211444210, guid: 6c71cdadbc342804d9b7defafe15a1f2, type: 3}
      propertyPath: m_LocalRotation.z
      value: -0
      objectReference: {fileID: 0}
    m_RemovedComponents: []
    m_RemovedGameObjects: []
    m_AddedGameObjects: []
    m_AddedComponents: []
  m_SourcePrefab: {fileID: 100100000, guid: 6c71cdadbc342804d9b7defafe15a1f2, type: 3}
--- !u!4 &1364165226 stripped
Transform:
  m_CorrespondingSourceObject: {fileID: 4000012211444210, guid: 6c71cdadbc342804d9b7defafe15a1f2, type: 3}
  m_PrefabInstance: {fileID: 1364165225}
  m_PrefabAsset: {fileID: 0}
--- !u!1 &1398464798
GameObject:
  m_ObjectHideFlags: 0
  m_CorrespondingSourceObject: {fileID: 0}
  m_PrefabInstance: {fileID: 0}
  m_PrefabAsset: {fileID: 0}
  serializedVersion: 6
  m_Component:
  - component: {fileID: 1398464799}
  m_Layer: 0
  m_Name: Pavements
  m_TagString: Untagged
  m_Icon: {fileID: 0}
  m_NavMeshLayer: 0
  m_StaticEditorFlags: 4294967295
  m_IsActive: 1
--- !u!4 &1398464799
Transform:
  m_ObjectHideFlags: 0
  m_CorrespondingSourceObject: {fileID: 0}
  m_PrefabInstance: {fileID: 0}
  m_PrefabAsset: {fileID: 0}
  m_GameObject: {fileID: 1398464798}
  m_LocalRotation: {x: 0, y: 0, z: 0, w: 1}
  m_LocalPosition: {x: 0, y: 0, z: 0}
  m_LocalScale: {x: 1, y: 1, z: 1}
  m_ConstrainProportionsScale: 0
  m_Children:
  - {fileID: 1738280579}
  - {fileID: 1862959097}
  - {fileID: 614029223}
  - {fileID: 2084739264}
  - {fileID: 220141206}
  - {fileID: 2146449915}
  - {fileID: 2085136906}
  - {fileID: 1588982571}
  - {fileID: 1974042673}
  m_Father: {fileID: 0}
  m_RootOrder: 2
  m_LocalEulerAnglesHint: {x: 0, y: 0, z: 0}
--- !u!1001 &1416944940
PrefabInstance:
  m_ObjectHideFlags: 0
  serializedVersion: 2
  m_Modification:
    serializedVersion: 3
    m_TransformParent: {fileID: 1164144093}
    m_Modifications:
    - target: {fileID: 4000012966314862, guid: a5e7bdc0c11bb9342bb61e41ff6835b6, type: 3}
      propertyPath: m_RootOrder
      value: 0
      objectReference: {fileID: 0}
    - target: {fileID: 4000012966314862, guid: a5e7bdc0c11bb9342bb61e41ff6835b6, type: 3}
      propertyPath: m_LocalPosition.x
      value: 0.75
      objectReference: {fileID: 0}
    - target: {fileID: 4000012966314862, guid: a5e7bdc0c11bb9342bb61e41ff6835b6, type: 3}
      propertyPath: m_LocalPosition.y
      value: 0
      objectReference: {fileID: 0}
    - target: {fileID: 4000012966314862, guid: a5e7bdc0c11bb9342bb61e41ff6835b6, type: 3}
      propertyPath: m_LocalPosition.z
      value: 0
      objectReference: {fileID: 0}
    - target: {fileID: 4000012966314862, guid: a5e7bdc0c11bb9342bb61e41ff6835b6, type: 3}
      propertyPath: m_LocalRotation.w
      value: 1
      objectReference: {fileID: 0}
    - target: {fileID: 4000012966314862, guid: a5e7bdc0c11bb9342bb61e41ff6835b6, type: 3}
      propertyPath: m_LocalRotation.x
      value: -0
      objectReference: {fileID: 0}
    - target: {fileID: 4000012966314862, guid: a5e7bdc0c11bb9342bb61e41ff6835b6, type: 3}
      propertyPath: m_LocalRotation.y
      value: -0
      objectReference: {fileID: 0}
    - target: {fileID: 4000012966314862, guid: a5e7bdc0c11bb9342bb61e41ff6835b6, type: 3}
      propertyPath: m_LocalRotation.z
      value: -0
      objectReference: {fileID: 0}
    m_RemovedComponents: []
    m_RemovedGameObjects: []
    m_AddedGameObjects: []
    m_AddedComponents: []
  m_SourcePrefab: {fileID: 100100000, guid: a5e7bdc0c11bb9342bb61e41ff6835b6, type: 3}
--- !u!4 &1416944941 stripped
Transform:
  m_CorrespondingSourceObject: {fileID: 4000012966314862, guid: a5e7bdc0c11bb9342bb61e41ff6835b6, type: 3}
  m_PrefabInstance: {fileID: 1416944940}
  m_PrefabAsset: {fileID: 0}
--- !u!1001 &1460785078
PrefabInstance:
  m_ObjectHideFlags: 0
  serializedVersion: 2
  m_Modification:
    serializedVersion: 3
    m_TransformParent: {fileID: 1164144093}
    m_Modifications:
    - target: {fileID: 4000011730801578, guid: 8ead503ecba22fb4ebe2a9ef66c5b617, type: 3}
      propertyPath: m_RootOrder
      value: 4
      objectReference: {fileID: 0}
    - target: {fileID: 4000011730801578, guid: 8ead503ecba22fb4ebe2a9ef66c5b617, type: 3}
      propertyPath: m_LocalPosition.x
      value: 0
      objectReference: {fileID: 0}
    - target: {fileID: 4000011730801578, guid: 8ead503ecba22fb4ebe2a9ef66c5b617, type: 3}
      propertyPath: m_LocalPosition.y
      value: 0
      objectReference: {fileID: 0}
    - target: {fileID: 4000011730801578, guid: 8ead503ecba22fb4ebe2a9ef66c5b617, type: 3}
      propertyPath: m_LocalPosition.z
      value: -1
      objectReference: {fileID: 0}
    - target: {fileID: 4000011730801578, guid: 8ead503ecba22fb4ebe2a9ef66c5b617, type: 3}
      propertyPath: m_LocalRotation.w
      value: 1
      objectReference: {fileID: 0}
    - target: {fileID: 4000011730801578, guid: 8ead503ecba22fb4ebe2a9ef66c5b617, type: 3}
      propertyPath: m_LocalRotation.x
      value: -0
      objectReference: {fileID: 0}
    - target: {fileID: 4000011730801578, guid: 8ead503ecba22fb4ebe2a9ef66c5b617, type: 3}
      propertyPath: m_LocalRotation.y
      value: -0
      objectReference: {fileID: 0}
    - target: {fileID: 4000011730801578, guid: 8ead503ecba22fb4ebe2a9ef66c5b617, type: 3}
      propertyPath: m_LocalRotation.z
      value: -0
      objectReference: {fileID: 0}
    m_RemovedComponents: []
    m_RemovedGameObjects: []
    m_AddedGameObjects: []
    m_AddedComponents: []
  m_SourcePrefab: {fileID: 100100000, guid: 8ead503ecba22fb4ebe2a9ef66c5b617, type: 3}
--- !u!4 &1460785079 stripped
Transform:
  m_CorrespondingSourceObject: {fileID: 4000011730801578, guid: 8ead503ecba22fb4ebe2a9ef66c5b617, type: 3}
  m_PrefabInstance: {fileID: 1460785078}
  m_PrefabAsset: {fileID: 0}
--- !u!1001 &1588982570
PrefabInstance:
  m_ObjectHideFlags: 0
  serializedVersion: 2
  m_Modification:
    serializedVersion: 3
    m_TransformParent: {fileID: 1398464799}
    m_Modifications:
    - target: {fileID: 1000014016851820, guid: 7136d990e102e7f4c9225a4f1759d384, type: 3}
      propertyPath: m_Name
      value: Pavement Road (7)
      objectReference: {fileID: 0}
    - target: {fileID: 4000012170992174, guid: 7136d990e102e7f4c9225a4f1759d384, type: 3}
      propertyPath: m_RootOrder
      value: 7
      objectReference: {fileID: 0}
    - target: {fileID: 4000012170992174, guid: 7136d990e102e7f4c9225a4f1759d384, type: 3}
      propertyPath: m_LocalPosition.x
      value: -1.5
      objectReference: {fileID: 0}
    - target: {fileID: 4000012170992174, guid: 7136d990e102e7f4c9225a4f1759d384, type: 3}
      propertyPath: m_LocalPosition.y
      value: -0.174
      objectReference: {fileID: 0}
    - target: {fileID: 4000012170992174, guid: 7136d990e102e7f4c9225a4f1759d384, type: 3}
      propertyPath: m_LocalPosition.z
      value: -1
      objectReference: {fileID: 0}
    - target: {fileID: 4000012170992174, guid: 7136d990e102e7f4c9225a4f1759d384, type: 3}
      propertyPath: m_LocalRotation.w
      value: 1
      objectReference: {fileID: 0}
    - target: {fileID: 4000012170992174, guid: 7136d990e102e7f4c9225a4f1759d384, type: 3}
      propertyPath: m_LocalRotation.x
      value: 0.0000018099951
      objectReference: {fileID: 0}
    - target: {fileID: 4000012170992174, guid: 7136d990e102e7f4c9225a4f1759d384, type: 3}
      propertyPath: m_LocalRotation.y
      value: -0
      objectReference: {fileID: 0}
    - target: {fileID: 4000012170992174, guid: 7136d990e102e7f4c9225a4f1759d384, type: 3}
      propertyPath: m_LocalRotation.z
      value: -0
      objectReference: {fileID: 0}
    m_RemovedComponents: []
    m_RemovedGameObjects: []
    m_AddedGameObjects: []
    m_AddedComponents: []
  m_SourcePrefab: {fileID: 100100000, guid: 7136d990e102e7f4c9225a4f1759d384, type: 3}
--- !u!4 &1588982571 stripped
Transform:
  m_CorrespondingSourceObject: {fileID: 4000012170992174, guid: 7136d990e102e7f4c9225a4f1759d384, type: 3}
  m_PrefabInstance: {fileID: 1588982570}
  m_PrefabAsset: {fileID: 0}
--- !u!1001 &1722811927
PrefabInstance:
  m_ObjectHideFlags: 0
  serializedVersion: 2
  m_Modification:
    serializedVersion: 3
    m_TransformParent: {fileID: 1398464799}
    m_Modifications:
    - target: {fileID: 1000014016851820, guid: 7136d990e102e7f4c9225a4f1759d384, type: 3}
      propertyPath: m_Name
      value: Pavement Road (8)
      objectReference: {fileID: 0}
    - target: {fileID: 4000012170992174, guid: 7136d990e102e7f4c9225a4f1759d384, type: 3}
      propertyPath: m_RootOrder
      value: 8
      objectReference: {fileID: 0}
    - target: {fileID: 4000012170992174, guid: 7136d990e102e7f4c9225a4f1759d384, type: 3}
      propertyPath: m_LocalPosition.x
      value: -2.5
      objectReference: {fileID: 0}
    - target: {fileID: 4000012170992174, guid: 7136d990e102e7f4c9225a4f1759d384, type: 3}
      propertyPath: m_LocalPosition.y
      value: -0.174
      objectReference: {fileID: 0}
    - target: {fileID: 4000012170992174, guid: 7136d990e102e7f4c9225a4f1759d384, type: 3}
      propertyPath: m_LocalPosition.z
      value: -0.5
      objectReference: {fileID: 0}
    - target: {fileID: 4000012170992174, guid: 7136d990e102e7f4c9225a4f1759d384, type: 3}
      propertyPath: m_LocalRotation.w
      value: 1
      objectReference: {fileID: 0}
    - target: {fileID: 4000012170992174, guid: 7136d990e102e7f4c9225a4f1759d384, type: 3}
      propertyPath: m_LocalRotation.x
      value: 0.0000018099951
      objectReference: {fileID: 0}
    - target: {fileID: 4000012170992174, guid: 7136d990e102e7f4c9225a4f1759d384, type: 3}
      propertyPath: m_LocalRotation.y
      value: -0
      objectReference: {fileID: 0}
    - target: {fileID: 4000012170992174, guid: 7136d990e102e7f4c9225a4f1759d384, type: 3}
      propertyPath: m_LocalRotation.z
      value: -0
      objectReference: {fileID: 0}
    m_RemovedComponents: []
    m_RemovedGameObjects: []
    m_AddedGameObjects: []
    m_AddedComponents: []
  m_SourcePrefab: {fileID: 100100000, guid: 7136d990e102e7f4c9225a4f1759d384, type: 3}
--- !u!1001 &1738280578
PrefabInstance:
  m_ObjectHideFlags: 0
  serializedVersion: 2
  m_Modification:
    serializedVersion: 3
    m_TransformParent: {fileID: 1398464799}
    m_Modifications:
    - target: {fileID: 4000012170992174, guid: 7136d990e102e7f4c9225a4f1759d384, type: 3}
      propertyPath: m_RootOrder
      value: 0
      objectReference: {fileID: 0}
    - target: {fileID: 4000012170992174, guid: 7136d990e102e7f4c9225a4f1759d384, type: 3}
      propertyPath: m_LocalPosition.x
      value: -0.75
      objectReference: {fileID: 0}
    - target: {fileID: 4000012170992174, guid: 7136d990e102e7f4c9225a4f1759d384, type: 3}
      propertyPath: m_LocalPosition.y
      value: -0.174
      objectReference: {fileID: 0}
    - target: {fileID: 4000012170992174, guid: 7136d990e102e7f4c9225a4f1759d384, type: 3}
      propertyPath: m_LocalPosition.z
      value: 0
      objectReference: {fileID: 0}
    - target: {fileID: 4000012170992174, guid: 7136d990e102e7f4c9225a4f1759d384, type: 3}
      propertyPath: m_LocalRotation.w
      value: 1
      objectReference: {fileID: 0}
    - target: {fileID: 4000012170992174, guid: 7136d990e102e7f4c9225a4f1759d384, type: 3}
      propertyPath: m_LocalRotation.x
      value: 0.0000018099951
      objectReference: {fileID: 0}
    - target: {fileID: 4000012170992174, guid: 7136d990e102e7f4c9225a4f1759d384, type: 3}
      propertyPath: m_LocalRotation.y
      value: -0
      objectReference: {fileID: 0}
    - target: {fileID: 4000012170992174, guid: 7136d990e102e7f4c9225a4f1759d384, type: 3}
      propertyPath: m_LocalRotation.z
      value: -0
      objectReference: {fileID: 0}
    m_RemovedComponents: []
    m_RemovedGameObjects: []
    m_AddedGameObjects: []
    m_AddedComponents: []
  m_SourcePrefab: {fileID: 100100000, guid: 7136d990e102e7f4c9225a4f1759d384, type: 3}
--- !u!4 &1738280579 stripped
Transform:
  m_CorrespondingSourceObject: {fileID: 4000012170992174, guid: 7136d990e102e7f4c9225a4f1759d384, type: 3}
  m_PrefabInstance: {fileID: 1738280578}
  m_PrefabAsset: {fileID: 0}
--- !u!1 &1833189920
GameObject:
  m_ObjectHideFlags: 0
  m_CorrespondingSourceObject: {fileID: 0}
  m_PrefabInstance: {fileID: 0}
  m_PrefabAsset: {fileID: 0}
  serializedVersion: 6
  m_Component:
  - component: {fileID: 1833189925}
  - component: {fileID: 1833189924}
  - component: {fileID: 1833189922}
  - component: {fileID: 1833189921}
  m_Layer: 0
  m_Name: Main Camera
  m_TagString: MainCamera
  m_Icon: {fileID: 0}
  m_NavMeshLayer: 0
  m_StaticEditorFlags: 0
  m_IsActive: 1
--- !u!81 &1833189921
AudioListener:
  m_ObjectHideFlags: 0
  m_CorrespondingSourceObject: {fileID: 0}
  m_PrefabInstance: {fileID: 0}
  m_PrefabAsset: {fileID: 0}
  m_GameObject: {fileID: 1833189920}
  m_Enabled: 1
--- !u!124 &1833189922
Behaviour:
  m_ObjectHideFlags: 0
  m_CorrespondingSourceObject: {fileID: 0}
  m_PrefabInstance: {fileID: 0}
  m_PrefabAsset: {fileID: 0}
  m_GameObject: {fileID: 1833189920}
  m_Enabled: 1
--- !u!20 &1833189924
Camera:
  m_ObjectHideFlags: 0
  m_CorrespondingSourceObject: {fileID: 0}
  m_PrefabInstance: {fileID: 0}
  m_PrefabAsset: {fileID: 0}
  m_GameObject: {fileID: 1833189920}
  m_Enabled: 1
  serializedVersion: 2
  m_ClearFlags: 2
  m_BackGroundColor: {r: 0.2794118, g: 0.2794118, b: 0.2794118, a: 0}
  m_projectionMatrixMode: 1
  m_GateFitMode: 2
  m_FOVAxisMode: 0
  m_Iso: 200
  m_ShutterSpeed: 0.005
  m_Aperture: 16
  m_FocusDistance: 10
  m_FocalLength: 50
  m_BladeCount: 5
  m_Curvature: {x: 2, y: 11}
  m_BarrelClipping: 0.25
  m_Anamorphism: 0
  m_SensorSize: {x: 36, y: 24}
  m_LensShift: {x: 0, y: 0}
  m_NormalizedViewPortRect:
    serializedVersion: 2
    x: 0
    y: 0
    width: 1
    height: 1
  near clip plane: 0.3
  far clip plane: 1000
  field of view: 60
  orthographic: 1
  orthographic size: 1.06
  m_Depth: -1
  m_CullingMask:
    serializedVersion: 2
    m_Bits: 4294967295
  m_RenderingPath: -1
  m_TargetTexture: {fileID: 0}
  m_TargetDisplay: 0
  m_TargetEye: 3
  m_HDR: 0
  m_AllowMSAA: 1
  m_AllowDynamicResolution: 0
  m_ForceIntoRT: 0
  m_OcclusionCulling: 1
  m_StereoConvergence: 10
  m_StereoSeparation: 0.022
--- !u!4 &1833189925
Transform:
  m_ObjectHideFlags: 0
  m_CorrespondingSourceObject: {fileID: 0}
  m_PrefabInstance: {fileID: 0}
  m_PrefabAsset: {fileID: 0}
  m_GameObject: {fileID: 1833189920}
  m_LocalRotation: {x: 0.08551628, y: -0.90691173, z: 0.22367004, w: 0.34665522}
  m_LocalPosition: {x: 0.6, y: 1.303, z: 1.0268188}
  m_LocalScale: {x: 1, y: 1, z: 1}
  m_ConstrainProportionsScale: 0
  m_Children: []
  m_Father: {fileID: 0}
  m_RootOrder: 0
  m_LocalEulerAnglesHint: {x: 0, y: 0, z: 0}
--- !u!1001 &1862959096
PrefabInstance:
  m_ObjectHideFlags: 0
  serializedVersion: 2
  m_Modification:
    serializedVersion: 3
    m_TransformParent: {fileID: 1398464799}
    m_Modifications:
    - target: {fileID: 1000014016851820, guid: 7136d990e102e7f4c9225a4f1759d384, type: 3}
      propertyPath: m_Name
      value: Pavement Road (1)
      objectReference: {fileID: 0}
    - target: {fileID: 4000012170992174, guid: 7136d990e102e7f4c9225a4f1759d384, type: 3}
      propertyPath: m_RootOrder
      value: 1
      objectReference: {fileID: 0}
    - target: {fileID: 4000012170992174, guid: 7136d990e102e7f4c9225a4f1759d384, type: 3}
      propertyPath: m_LocalPosition.x
      value: 0
      objectReference: {fileID: 0}
    - target: {fileID: 4000012170992174, guid: 7136d990e102e7f4c9225a4f1759d384, type: 3}
      propertyPath: m_LocalPosition.y
      value: -0.174
      objectReference: {fileID: 0}
    - target: {fileID: 4000012170992174, guid: 7136d990e102e7f4c9225a4f1759d384, type: 3}
      propertyPath: m_LocalPosition.z
      value: 0
      objectReference: {fileID: 0}
    - target: {fileID: 4000012170992174, guid: 7136d990e102e7f4c9225a4f1759d384, type: 3}
      propertyPath: m_LocalRotation.w
      value: 1
      objectReference: {fileID: 0}
    - target: {fileID: 4000012170992174, guid: 7136d990e102e7f4c9225a4f1759d384, type: 3}
      propertyPath: m_LocalRotation.x
      value: 0.0000018099951
      objectReference: {fileID: 0}
    - target: {fileID: 4000012170992174, guid: 7136d990e102e7f4c9225a4f1759d384, type: 3}
      propertyPath: m_LocalRotation.y
      value: -0
      objectReference: {fileID: 0}
    - target: {fileID: 4000012170992174, guid: 7136d990e102e7f4c9225a4f1759d384, type: 3}
      propertyPath: m_LocalRotation.z
      value: -0
      objectReference: {fileID: 0}
    m_RemovedComponents: []
    m_RemovedGameObjects: []
    m_AddedGameObjects: []
    m_AddedComponents: []
  m_SourcePrefab: {fileID: 100100000, guid: 7136d990e102e7f4c9225a4f1759d384, type: 3}
--- !u!4 &1862959097 stripped
Transform:
  m_CorrespondingSourceObject: {fileID: 4000012170992174, guid: 7136d990e102e7f4c9225a4f1759d384, type: 3}
  m_PrefabInstance: {fileID: 1862959096}
  m_PrefabAsset: {fileID: 0}
--- !u!4 &1974042673 stripped
Transform:
  m_CorrespondingSourceObject: {fileID: 4000012170992174, guid: 7136d990e102e7f4c9225a4f1759d384, type: 3}
  m_PrefabInstance: {fileID: 1722811927}
  m_PrefabAsset: {fileID: 0}
--- !u!1001 &2084739263
PrefabInstance:
  m_ObjectHideFlags: 0
  serializedVersion: 2
  m_Modification:
    serializedVersion: 3
    m_TransformParent: {fileID: 1398464799}
    m_Modifications:
    - target: {fileID: 1000014016851820, guid: 7136d990e102e7f4c9225a4f1759d384, type: 3}
      propertyPath: m_Name
      value: Pavement Road (3)
      objectReference: {fileID: 0}
    - target: {fileID: 4000012170992174, guid: 7136d990e102e7f4c9225a4f1759d384, type: 3}
      propertyPath: m_RootOrder
      value: 3
      objectReference: {fileID: 0}
    - target: {fileID: 4000012170992174, guid: 7136d990e102e7f4c9225a4f1759d384, type: 3}
      propertyPath: m_LocalPosition.x
      value: 0.75
      objectReference: {fileID: 0}
    - target: {fileID: 4000012170992174, guid: 7136d990e102e7f4c9225a4f1759d384, type: 3}
      propertyPath: m_LocalPosition.y
      value: -0.174
      objectReference: {fileID: 0}
    - target: {fileID: 4000012170992174, guid: 7136d990e102e7f4c9225a4f1759d384, type: 3}
      propertyPath: m_LocalPosition.z
      value: 0
      objectReference: {fileID: 0}
    - target: {fileID: 4000012170992174, guid: 7136d990e102e7f4c9225a4f1759d384, type: 3}
      propertyPath: m_LocalRotation.w
      value: 1
      objectReference: {fileID: 0}
    - target: {fileID: 4000012170992174, guid: 7136d990e102e7f4c9225a4f1759d384, type: 3}
      propertyPath: m_LocalRotation.x
      value: 0.0000018099951
      objectReference: {fileID: 0}
    - target: {fileID: 4000012170992174, guid: 7136d990e102e7f4c9225a4f1759d384, type: 3}
      propertyPath: m_LocalRotation.y
      value: -0
      objectReference: {fileID: 0}
    - target: {fileID: 4000012170992174, guid: 7136d990e102e7f4c9225a4f1759d384, type: 3}
      propertyPath: m_LocalRotation.z
      value: -0
      objectReference: {fileID: 0}
    m_RemovedComponents: []
    m_RemovedGameObjects: []
    m_AddedGameObjects: []
    m_AddedComponents: []
  m_SourcePrefab: {fileID: 100100000, guid: 7136d990e102e7f4c9225a4f1759d384, type: 3}
--- !u!4 &2084739264 stripped
Transform:
  m_CorrespondingSourceObject: {fileID: 4000012170992174, guid: 7136d990e102e7f4c9225a4f1759d384, type: 3}
  m_PrefabInstance: {fileID: 2084739263}
  m_PrefabAsset: {fileID: 0}
--- !u!1001 &2085136905
PrefabInstance:
  m_ObjectHideFlags: 0
  serializedVersion: 2
  m_Modification:
    serializedVersion: 3
    m_TransformParent: {fileID: 1398464799}
    m_Modifications:
    - target: {fileID: 1000014016851820, guid: 7136d990e102e7f4c9225a4f1759d384, type: 3}
      propertyPath: m_Name
      value: Pavement Road (6)
      objectReference: {fileID: 0}
    - target: {fileID: 4000012170992174, guid: 7136d990e102e7f4c9225a4f1759d384, type: 3}
      propertyPath: m_RootOrder
      value: 6
      objectReference: {fileID: 0}
    - target: {fileID: 4000012170992174, guid: 7136d990e102e7f4c9225a4f1759d384, type: 3}
      propertyPath: m_LocalPosition.x
      value: -0.75
      objectReference: {fileID: 0}
    - target: {fileID: 4000012170992174, guid: 7136d990e102e7f4c9225a4f1759d384, type: 3}
      propertyPath: m_LocalPosition.y
      value: -0.174
      objectReference: {fileID: 0}
    - target: {fileID: 4000012170992174, guid: 7136d990e102e7f4c9225a4f1759d384, type: 3}
      propertyPath: m_LocalPosition.z
      value: -1
      objectReference: {fileID: 0}
    - target: {fileID: 4000012170992174, guid: 7136d990e102e7f4c9225a4f1759d384, type: 3}
      propertyPath: m_LocalRotation.w
      value: 1
      objectReference: {fileID: 0}
    - target: {fileID: 4000012170992174, guid: 7136d990e102e7f4c9225a4f1759d384, type: 3}
      propertyPath: m_LocalRotation.x
      value: 0.0000018099951
      objectReference: {fileID: 0}
    - target: {fileID: 4000012170992174, guid: 7136d990e102e7f4c9225a4f1759d384, type: 3}
      propertyPath: m_LocalRotation.y
      value: -0
      objectReference: {fileID: 0}
    - target: {fileID: 4000012170992174, guid: 7136d990e102e7f4c9225a4f1759d384, type: 3}
      propertyPath: m_LocalRotation.z
      value: -0
      objectReference: {fileID: 0}
    m_RemovedComponents: []
    m_RemovedGameObjects: []
    m_AddedGameObjects: []
    m_AddedComponents: []
  m_SourcePrefab: {fileID: 100100000, guid: 7136d990e102e7f4c9225a4f1759d384, type: 3}
--- !u!4 &2085136906 stripped
Transform:
  m_CorrespondingSourceObject: {fileID: 4000012170992174, guid: 7136d990e102e7f4c9225a4f1759d384, type: 3}
  m_PrefabInstance: {fileID: 2085136905}
  m_PrefabAsset: {fileID: 0}
--- !u!1001 &2146449914
PrefabInstance:
  m_ObjectHideFlags: 0
  serializedVersion: 2
  m_Modification:
    serializedVersion: 3
    m_TransformParent: {fileID: 1398464799}
    m_Modifications:
    - target: {fileID: 1000014016851820, guid: 7136d990e102e7f4c9225a4f1759d384, type: 3}
      propertyPath: m_Name
      value: Pavement Road (5)
      objectReference: {fileID: 0}
    - target: {fileID: 4000012170992174, guid: 7136d990e102e7f4c9225a4f1759d384, type: 3}
      propertyPath: m_RootOrder
      value: 5
      objectReference: {fileID: 0}
    - target: {fileID: 4000012170992174, guid: 7136d990e102e7f4c9225a4f1759d384, type: 3}
      propertyPath: m_LocalPosition.x
      value: 0
      objectReference: {fileID: 0}
    - target: {fileID: 4000012170992174, guid: 7136d990e102e7f4c9225a4f1759d384, type: 3}
      propertyPath: m_LocalPosition.y
      value: -0.174
      objectReference: {fileID: 0}
    - target: {fileID: 4000012170992174, guid: 7136d990e102e7f4c9225a4f1759d384, type: 3}
      propertyPath: m_LocalPosition.z
      value: -1
      objectReference: {fileID: 0}
    - target: {fileID: 4000012170992174, guid: 7136d990e102e7f4c9225a4f1759d384, type: 3}
      propertyPath: m_LocalRotation.w
      value: 1
      objectReference: {fileID: 0}
    - target: {fileID: 4000012170992174, guid: 7136d990e102e7f4c9225a4f1759d384, type: 3}
      propertyPath: m_LocalRotation.x
      value: 0.0000018099951
      objectReference: {fileID: 0}
    - target: {fileID: 4000012170992174, guid: 7136d990e102e7f4c9225a4f1759d384, type: 3}
      propertyPath: m_LocalRotation.y
      value: -0
      objectReference: {fileID: 0}
    - target: {fileID: 4000012170992174, guid: 7136d990e102e7f4c9225a4f1759d384, type: 3}
      propertyPath: m_LocalRotation.z
      value: -0
      objectReference: {fileID: 0}
    m_RemovedComponents: []
    m_RemovedGameObjects: []
    m_AddedGameObjects: []
    m_AddedComponents: []
  m_SourcePrefab: {fileID: 100100000, guid: 7136d990e102e7f4c9225a4f1759d384, type: 3}
--- !u!4 &2146449915 stripped
Transform:
  m_CorrespondingSourceObject: {fileID: 4000012170992174, guid: 7136d990e102e7f4c9225a4f1759d384, type: 3}
  m_PrefabInstance: {fileID: 2146449914}
  m_PrefabAsset: {fileID: 0}
